%YAML 1.1
%TAG !u! tag:unity3d.com,2011:
--- !u!1 &101142
GameObject:
  m_ObjectHideFlags: 0
  m_CorrespondingSourceObject: {fileID: 0}
  m_PrefabInstance: {fileID: 0}
  m_PrefabAsset: {fileID: 0}
  serializedVersion: 6
  m_Component:
  - component: {fileID: 479198}
  m_Layer: 0
  m_Name: RBLeg3
  m_TagString: Untagged
  m_Icon: {fileID: 0}
  m_NavMeshLayer: 0
  m_StaticEditorFlags: 0
  m_IsActive: 1
--- !u!4 &479198
Transform:
  m_ObjectHideFlags: 0
  m_CorrespondingSourceObject: {fileID: 0}
  m_PrefabInstance: {fileID: 0}
  m_PrefabAsset: {fileID: 0}
  m_GameObject: {fileID: 101142}
  m_LocalRotation: {x: -0.1164682, y: -0.52007186, z: 0.024184823, w: 0.84579873}
  m_LocalPosition: {x: -0.29342365, y: -0.000000036334992, z: 0}
  m_LocalScale: {x: 1.2183715, y: 1.0000002, z: 1}
  m_Children:
  - {fileID: 482628}
  m_Father: {fileID: 452330}
  m_RootOrder: 0
  m_LocalEulerAnglesHint: {x: -9.8961, y: -63.995296, z: 9.4683}
--- !u!1 &103482
GameObject:
  m_ObjectHideFlags: 0
  m_CorrespondingSourceObject: {fileID: 0}
  m_PrefabInstance: {fileID: 0}
  m_PrefabAsset: {fileID: 0}
  serializedVersion: 6
  m_Component:
  - component: {fileID: 496894}
  m_Layer: 0
  m_Name: RBLeg1 1
  m_TagString: Untagged
  m_Icon: {fileID: 0}
  m_NavMeshLayer: 0
  m_StaticEditorFlags: 0
  m_IsActive: 1
--- !u!4 &496894
Transform:
  m_ObjectHideFlags: 0
  m_CorrespondingSourceObject: {fileID: 0}
  m_PrefabInstance: {fileID: 0}
  m_PrefabAsset: {fileID: 0}
  m_GameObject: {fileID: 103482}
  m_LocalRotation: {x: 0, y: 0, z: 0.4535453, w: 0.8912332}
  m_LocalPosition: {x: -0.27028254, y: -0.000000018167496, z: 0}
  m_LocalScale: {x: 0.614034, y: 0.99999976, z: 1}
  m_Children:
  - {fileID: 488338}
  m_Father: {fileID: 465420}
  m_RootOrder: 0
  m_LocalEulerAnglesHint: {x: 0, y: 0, z: 53.9428}
--- !u!1 &104822
GameObject:
  m_ObjectHideFlags: 0
  m_CorrespondingSourceObject: {fileID: 0}
  m_PrefabInstance: {fileID: 0}
  m_PrefabAsset: {fileID: 0}
  serializedVersion: 6
  m_Component:
  - component: {fileID: 417932}
  - component: {fileID: 13590414}
  m_Layer: 2
  m_Name: AggroArea
  m_TagString: Untagged
  m_Icon: {fileID: 0}
  m_NavMeshLayer: 0
  m_StaticEditorFlags: 0
  m_IsActive: 1
--- !u!4 &417932
Transform:
  m_ObjectHideFlags: 0
  m_CorrespondingSourceObject: {fileID: 0}
  m_PrefabInstance: {fileID: 0}
  m_PrefabAsset: {fileID: 0}
  m_GameObject: {fileID: 104822}
  m_LocalRotation: {x: 0, y: 0, z: 0, w: 1}
  m_LocalPosition: {x: 0, y: 0, z: 0}
  m_LocalScale: {x: 1, y: 1, z: 1}
  m_Children: []
  m_Father: {fileID: 424638}
  m_RootOrder: 2
  m_LocalEulerAnglesHint: {x: 0, y: 0, z: 0}
--- !u!135 &13590414
SphereCollider:
  m_ObjectHideFlags: 0
  m_CorrespondingSourceObject: {fileID: 0}
  m_PrefabInstance: {fileID: 0}
  m_PrefabAsset: {fileID: 0}
  m_GameObject: {fileID: 104822}
  m_Material: {fileID: 0}
  m_IsTrigger: 1
  m_Enabled: 1
  serializedVersion: 2
  m_Radius: 3.5
  m_Center: {x: 0, y: 0, z: 0}
--- !u!1 &107820
GameObject:
  m_ObjectHideFlags: 0
  m_CorrespondingSourceObject: {fileID: 0}
  m_PrefabInstance: {fileID: 0}
  m_PrefabAsset: {fileID: 0}
  serializedVersion: 6
  m_Component:
  - component: {fileID: 491548}
  m_Layer: 0
  m_Name: LALeg4
  m_TagString: Untagged
  m_Icon: {fileID: 0}
  m_NavMeshLayer: 0
  m_StaticEditorFlags: 0
  m_IsActive: 1
--- !u!4 &491548
Transform:
  m_ObjectHideFlags: 0
  m_CorrespondingSourceObject: {fileID: 0}
  m_PrefabInstance: {fileID: 0}
  m_PrefabAsset: {fileID: 0}
  m_GameObject: {fileID: 107820}
  m_LocalRotation: {x: 0.0003476468, y: -0.00019406769, z: 0.48745513, w: 0.87314796}
  m_LocalPosition: {x: -0.50007236, y: 0.000000072669984, z: -0.000000024980308}
  m_LocalScale: {x: 1, y: 1, z: 0.9999999}
  m_Children:
  - {fileID: 427722}
  m_Father: {fileID: 425030}
  m_RootOrder: 0
  m_LocalEulerAnglesHint: {x: 0.045599997, y: 0, z: 58.346897}
--- !u!1 &109916
GameObject:
  m_ObjectHideFlags: 0
  m_CorrespondingSourceObject: {fileID: 0}
  m_PrefabInstance: {fileID: 0}
  m_PrefabAsset: {fileID: 0}
  serializedVersion: 6
  m_Component:
  - component: {fileID: 454242}
  m_Layer: 0
  m_Name: RBLeg4 1
  m_TagString: Untagged
  m_Icon: {fileID: 0}
  m_NavMeshLayer: 0
  m_StaticEditorFlags: 0
  m_IsActive: 1
--- !u!4 &454242
Transform:
  m_ObjectHideFlags: 0
  m_CorrespondingSourceObject: {fileID: 0}
  m_PrefabInstance: {fileID: 0}
  m_PrefabAsset: {fileID: 0}
  m_GameObject: {fileID: 109916}
  m_LocalRotation: {x: -0.009917149, y: -0.25011098, z: -0.038358618, w: 0.9674062}
  m_LocalPosition: {x: -0.45025092, y: 0.000000036334992, z: 0}
  m_LocalScale: {x: 0.99999994, y: 0.99999994, z: 1}
  m_Children: []
  m_Father: {fileID: 439210}
  m_RootOrder: 0
  m_LocalEulerAnglesHint: {x: -2.1993, y: -28.9151, z: -3.9742}
--- !u!1 &111512
GameObject:
  m_ObjectHideFlags: 0
  m_CorrespondingSourceObject: {fileID: 0}
  m_PrefabInstance: {fileID: 0}
  m_PrefabAsset: {fileID: 0}
  serializedVersion: 6
  m_Component:
  - component: {fileID: 425030}
  m_Layer: 0
  m_Name: LALeg3
  m_TagString: Untagged
  m_Icon: {fileID: 0}
  m_NavMeshLayer: 0
  m_StaticEditorFlags: 0
  m_IsActive: 1
--- !u!4 &425030
Transform:
  m_ObjectHideFlags: 0
  m_CorrespondingSourceObject: {fileID: 0}
  m_PrefabInstance: {fileID: 0}
  m_PrefabAsset: {fileID: 0}
  m_GameObject: {fileID: 111512}
  m_LocalRotation: {x: 0.7824855, y: -0.6211204, z: -0.043787945, w: 0.002930805}
  m_LocalPosition: {x: -0.25048262, y: 0.000000036334992, z: -0.000000018167496}
  m_LocalScale: {x: 1.0000001, y: 1.0000001, z: 1}
  m_Children:
  - {fileID: 491548}
  m_Father: {fileID: 478512}
  m_RootOrder: 0
  m_LocalEulerAnglesHint: {x: -2.855, y: -175.8564, z: -103.219696}
--- !u!1 &123782
GameObject:
  m_ObjectHideFlags: 0
  m_CorrespondingSourceObject: {fileID: 0}
  m_PrefabInstance: {fileID: 0}
  m_PrefabAsset: {fileID: 0}
  serializedVersion: 6
  m_Component:
  - component: {fileID: 465420}
  m_Layer: 0
  m_Name: RBLegCon
  m_TagString: Untagged
  m_Icon: {fileID: 0}
  m_NavMeshLayer: 0
  m_StaticEditorFlags: 0
  m_IsActive: 1
--- !u!4 &465420
Transform:
  m_ObjectHideFlags: 0
  m_CorrespondingSourceObject: {fileID: 0}
  m_PrefabInstance: {fileID: 0}
  m_PrefabAsset: {fileID: 0}
  m_GameObject: {fileID: 123782}
  m_LocalRotation: {x: 0, y: 0, z: 0.28114805, w: 0.9596644}
  m_LocalPosition: {x: 0.000000024480057, y: 0.00000010900497, z: 0}
  m_LocalScale: {x: 1.0532681, y: 0.99999976, z: 1}
  m_Children:
  - {fileID: 496894}
  m_Father: {fileID: 434304}
  m_RootOrder: 3
  m_LocalEulerAnglesHint: {x: 0, y: 0, z: 32.657497}
--- !u!1 &126028
GameObject:
  m_ObjectHideFlags: 0
  m_CorrespondingSourceObject: {fileID: 0}
  m_PrefabInstance: {fileID: 0}
  m_PrefabAsset: {fileID: 0}
  serializedVersion: 6
  m_Component:
  - component: {fileID: 438214}
  m_Layer: 0
  m_Name: LCLegNub 1
  m_TagString: Untagged
  m_Icon: {fileID: 0}
  m_NavMeshLayer: 0
  m_StaticEditorFlags: 0
  m_IsActive: 1
--- !u!4 &438214
Transform:
  m_ObjectHideFlags: 0
  m_CorrespondingSourceObject: {fileID: 0}
  m_PrefabInstance: {fileID: 0}
  m_PrefabAsset: {fileID: 0}
  m_GameObject: {fileID: 126028}
  m_LocalRotation: {x: -0.0000000018626451, y: 0.0000000037252903, z: 6.938894e-18,
    w: 1}
  m_LocalPosition: {x: -0.20788571, y: 0, z: 0.000000036334992}
  m_LocalScale: {x: 1, y: 1, z: 1}
  m_Children: []
  m_Father: {fileID: 452262}
  m_RootOrder: 0
  m_LocalEulerAnglesHint: {x: 0, y: 0, z: 0}
--- !u!1 &134432
GameObject:
  m_ObjectHideFlags: 0
  m_CorrespondingSourceObject: {fileID: 0}
  m_PrefabInstance: {fileID: 0}
  m_PrefabAsset: {fileID: 0}
  serializedVersion: 6
  m_Component:
  - component: {fileID: 418028}
  m_Layer: 0
  m_Name: RALeg1
  m_TagString: Untagged
  m_Icon: {fileID: 0}
  m_NavMeshLayer: 0
  m_StaticEditorFlags: 0
  m_IsActive: 1
--- !u!4 &418028
Transform:
  m_ObjectHideFlags: 0
  m_CorrespondingSourceObject: {fileID: 0}
  m_PrefabInstance: {fileID: 0}
  m_PrefabAsset: {fileID: 0}
  m_GameObject: {fileID: 134432}
  m_LocalRotation: {x: 0.87918985, y: -0.29868075, z: -0.27584574, w: -0.24844365}
  m_LocalPosition: {x: -0.16476192, y: 0, z: -0.000000018167496}
  m_LocalScale: {x: 1, y: 1.0000001, z: 1.0000001}
  m_Children:
  - {fileID: 449866}
  m_Father: {fileID: 421662}
  m_RootOrder: 0
  m_LocalEulerAnglesHint: {x: -36.9873, y: -155.0746, z: -150.9279}
--- !u!1 &135736
GameObject:
  m_ObjectHideFlags: 0
  m_CorrespondingSourceObject: {fileID: 0}
  m_PrefabInstance: {fileID: 0}
  m_PrefabAsset: {fileID: 0}
  serializedVersion: 6
  m_Component:
  - component: {fileID: 463556}
  m_Layer: 0
  m_Name: RCLeg3
  m_TagString: Untagged
  m_Icon: {fileID: 0}
  m_NavMeshLayer: 0
  m_StaticEditorFlags: 0
  m_IsActive: 1
--- !u!4 &463556
Transform:
  m_ObjectHideFlags: 0
  m_CorrespondingSourceObject: {fileID: 0}
  m_PrefabInstance: {fileID: 0}
  m_PrefabAsset: {fileID: 0}
  m_GameObject: {fileID: 135736}
  m_LocalRotation: {x: -0.09567328, y: 0.0082355905, z: 0.8506331, w: 0.516916}
  m_LocalPosition: {x: -0.2511999, y: 0.000000018167496, z: -0.000000036334992}
  m_LocalScale: {x: 1.0000001, y: 1.0000001, z: 0.99999994}
  m_Children:
  - {fileID: 452262}
  m_Father: {fileID: 432738}
  m_RootOrder: 0
  m_LocalEulerAnglesHint: {x: -6.4838, y: -8.931, z: 117.9342}
--- !u!1 &137806
GameObject:
  m_ObjectHideFlags: 0
  m_CorrespondingSourceObject: {fileID: 0}
  m_PrefabInstance: {fileID: 0}
  m_PrefabAsset: {fileID: 0}
  serializedVersion: 6
  m_Component:
  - component: {fileID: 453164}
  m_Layer: 0
  m_Name: LALeg1
  m_TagString: Untagged
  m_Icon: {fileID: 0}
  m_NavMeshLayer: 0
  m_StaticEditorFlags: 0
  m_IsActive: 1
--- !u!4 &453164
Transform:
  m_ObjectHideFlags: 0
  m_CorrespondingSourceObject: {fileID: 0}
  m_PrefabInstance: {fileID: 0}
  m_PrefabAsset: {fileID: 0}
  m_GameObject: {fileID: 137806}
  m_LocalRotation: {x: 0.913015, y: -0.3319323, z: 0.13183892, w: 0.19708651}
  m_LocalPosition: {x: -0.16476192, y: -0.000000036334992, z: -0.000000036334992}
  m_LocalScale: {x: 1, y: 1, z: 1.0000001}
  m_Children:
  - {fileID: 478512}
  m_Father: {fileID: 465098}
  m_RootOrder: 0
  m_LocalEulerAnglesHint: {x: 26.577599, y: 172.9412, z: -141.71109}
--- !u!1 &142672
GameObject:
  m_ObjectHideFlags: 0
  m_CorrespondingSourceObject: {fileID: 0}
  m_PrefabInstance: {fileID: 0}
  m_PrefabAsset: {fileID: 0}
  serializedVersion: 6
  m_Component:
  - component: {fileID: 421662}
  m_Layer: 0
  m_Name: RALegCon
  m_TagString: Untagged
  m_Icon: {fileID: 0}
  m_NavMeshLayer: 0
  m_StaticEditorFlags: 0
  m_IsActive: 1
--- !u!4 &421662
Transform:
  m_ObjectHideFlags: 0
  m_CorrespondingSourceObject: {fileID: 0}
  m_PrefabInstance: {fileID: 0}
  m_PrefabAsset: {fileID: 0}
  m_GameObject: {fileID: 142672}
  m_LocalRotation: {x: -0.42654532, y: 0.6783897, z: 0.59044, w: 0.09605808}
  m_LocalPosition: {x: 0.00000029067994, y: 0.000055456283, z: 0.04688032}
  m_LocalScale: {x: 0.9999999, y: 0.99999994, z: 1}
  m_Children:
  - {fileID: 418028}
  m_Father: {fileID: 468736}
  m_RootOrder: 2
  m_LocalEulerAnglesHint: {x: -62.0117, y: -127.287994, z: -97.4834}
--- !u!1 &143100
GameObject:
  m_ObjectHideFlags: 0
  m_CorrespondingSourceObject: {fileID: 0}
  m_PrefabInstance: {fileID: 0}
  m_PrefabAsset: {fileID: 0}
  serializedVersion: 6
  m_Component:
  - component: {fileID: 415542}
  m_Layer: 0
  m_Name: RALeg4
  m_TagString: Untagged
  m_Icon: {fileID: 0}
  m_NavMeshLayer: 0
  m_StaticEditorFlags: 0
  m_IsActive: 1
--- !u!4 &415542
Transform:
  m_ObjectHideFlags: 0
  m_CorrespondingSourceObject: {fileID: 0}
  m_PrefabInstance: {fileID: 0}
  m_PrefabAsset: {fileID: 0}
  m_GameObject: {fileID: 143100}
  m_LocalRotation: {x: -0.00039210438, y: 0.00006913031, z: 0.17364812, w: 0.9848077}
  m_LocalPosition: {x: -0.5000723, y: 0, z: -0.00000004541874}
  m_LocalScale: {x: 0.9999999, y: 0.99999994, z: 0.9999999}
  m_Children:
  - {fileID: 433582}
  m_Father: {fileID: 451268}
  m_RootOrder: 0
  m_LocalEulerAnglesHint: {x: -0.0457, y: 0, z: 20}
--- !u!1 &143328
GameObject:
  m_ObjectHideFlags: 0
  m_CorrespondingSourceObject: {fileID: 0}
  m_PrefabInstance: {fileID: 0}
  m_PrefabAsset: {fileID: 0}
  serializedVersion: 6
  m_Component:
  - component: {fileID: 482628}
  m_Layer: 0
  m_Name: RBLeg4
  m_TagString: Untagged
  m_Icon: {fileID: 0}
  m_NavMeshLayer: 0
  m_StaticEditorFlags: 0
  m_IsActive: 1
--- !u!4 &482628
Transform:
  m_ObjectHideFlags: 0
  m_CorrespondingSourceObject: {fileID: 0}
  m_PrefabInstance: {fileID: 0}
  m_PrefabAsset: {fileID: 0}
  m_GameObject: {fileID: 143328}
  m_LocalRotation: {x: -0.009917149, y: -0.25011098, z: -0.038358618, w: 0.9674062}
  m_LocalPosition: {x: -0.45025092, y: 0.000000036334992, z: 0}
  m_LocalScale: {x: 0.99999994, y: 0.99999994, z: 1}
  m_Children: []
  m_Father: {fileID: 479198}
  m_RootOrder: 0
  m_LocalEulerAnglesHint: {x: -2.1993, y: -28.9151, z: -3.9742}
--- !u!1 &143490
GameObject:
  m_ObjectHideFlags: 0
  m_CorrespondingSourceObject: {fileID: 0}
  m_PrefabInstance: {fileID: 0}
  m_PrefabAsset: {fileID: 0}
  serializedVersion: 6
  m_Component:
  - component: {fileID: 412808}
  - component: {fileID: 13637704}
  m_Layer: 0
  m_Name: Pelvis
  m_TagString: Untagged
  m_Icon: {fileID: 0}
  m_NavMeshLayer: 0
  m_StaticEditorFlags: 0
  m_IsActive: 1
--- !u!4 &412808
Transform:
  m_ObjectHideFlags: 0
  m_CorrespondingSourceObject: {fileID: 0}
  m_PrefabInstance: {fileID: 0}
  m_PrefabAsset: {fileID: 0}
  m_GameObject: {fileID: 143490}
  m_LocalRotation: {x: -0.4999997, y: 0.5000003, z: 0.4999997, w: 0.5000003}
  m_LocalPosition: {x: 0, y: 0, z: 0}
  m_LocalScale: {x: 1, y: 1, z: 1}
  m_Children:
  - {fileID: 438780}
  m_Father: {fileID: 434304}
  m_RootOrder: 2
  m_LocalEulerAnglesHint: {x: -90, y: 90, z: 0}
--- !u!136 &13637704
CapsuleCollider:
  m_ObjectHideFlags: 0
  m_CorrespondingSourceObject: {fileID: 0}
  m_PrefabInstance: {fileID: 0}
  m_PrefabAsset: {fileID: 0}
  m_GameObject: {fileID: 143490}
  m_Material: {fileID: 0}
  m_IsTrigger: 1
  m_Enabled: 1
  m_Radius: 0.79
  m_Height: 1
  m_Direction: 1
  m_Center: {x: -0.28, y: 0.3, z: 0}
--- !u!1 &144308
GameObject:
  m_ObjectHideFlags: 0
  m_CorrespondingSourceObject: {fileID: 0}
  m_PrefabInstance: {fileID: 0}
  m_PrefabAsset: {fileID: 0}
  serializedVersion: 6
  m_Component:
  - component: {fileID: 439210}
  m_Layer: 0
  m_Name: RBLeg3 1
  m_TagString: Untagged
  m_Icon: {fileID: 0}
  m_NavMeshLayer: 0
  m_StaticEditorFlags: 0
  m_IsActive: 1
--- !u!4 &439210
Transform:
  m_ObjectHideFlags: 0
  m_CorrespondingSourceObject: {fileID: 0}
  m_PrefabInstance: {fileID: 0}
  m_PrefabAsset: {fileID: 0}
  m_GameObject: {fileID: 144308}
  m_LocalRotation: {x: -0.1164682, y: -0.52007186, z: 0.024184823, w: 0.84579873}
  m_LocalPosition: {x: -0.29342365, y: -0.000000036334992, z: 0}
  m_LocalScale: {x: 1.2183715, y: 1.0000002, z: 1}
  m_Children:
  - {fileID: 454242}
  m_Father: {fileID: 488338}
  m_RootOrder: 0
  m_LocalEulerAnglesHint: {x: -9.8961, y: -63.995296, z: 9.4683}
--- !u!1 &145282
GameObject:
  m_ObjectHideFlags: 0
  m_CorrespondingSourceObject: {fileID: 0}
  m_PrefabInstance: {fileID: 0}
  m_PrefabAsset: {fileID: 0}
  serializedVersion: 6
  m_Component:
  - component: {fileID: 444562}
  m_Layer: 0
  m_Name: HeadNub
  m_TagString: Untagged
  m_Icon: {fileID: 0}
  m_NavMeshLayer: 0
  m_StaticEditorFlags: 0
  m_IsActive: 1
--- !u!4 &444562
Transform:
  m_ObjectHideFlags: 0
  m_CorrespondingSourceObject: {fileID: 0}
  m_PrefabInstance: {fileID: 0}
  m_PrefabAsset: {fileID: 0}
  m_GameObject: {fileID: 145282}
  m_LocalRotation: {x: 5.684342e-14, y: 0, z: -0, w: 1}
  m_LocalPosition: {x: -0.22033754, y: 0.000000009083748, z: -6.93035e-14}
  m_LocalScale: {x: 1, y: 1, z: 1}
  m_Children: []
  m_Father: {fileID: 448292}
  m_RootOrder: 0
  m_LocalEulerAnglesHint: {x: 0, y: 0, z: 0}
--- !u!1 &145684
GameObject:
  m_ObjectHideFlags: 0
  m_CorrespondingSourceObject: {fileID: 0}
  m_PrefabInstance: {fileID: 0}
  m_PrefabAsset: {fileID: 0}
  serializedVersion: 6
  m_Component:
  - component: {fileID: 407328}
  m_Layer: 0
  m_Name: LCLeg3
  m_TagString: Untagged
  m_Icon: {fileID: 0}
  m_NavMeshLayer: 0
  m_StaticEditorFlags: 0
  m_IsActive: 1
--- !u!4 &407328
Transform:
  m_ObjectHideFlags: 0
  m_CorrespondingSourceObject: {fileID: 0}
  m_PrefabInstance: {fileID: 0}
  m_PrefabAsset: {fileID: 0}
  m_GameObject: {fileID: 145684}
  m_LocalRotation: {x: 0.011179358, y: -0.0018804611, z: 0.97389, w: 0.22673725}
  m_LocalPosition: {x: -0.2511999, y: 0.000000018167496, z: 0}
  m_LocalScale: {x: 1.0000001, y: 1.0000001, z: 1.0000002}
  m_Children:
  - {fileID: 417550}
  m_Father: {fileID: 448160}
  m_RootOrder: 0
  m_LocalEulerAnglesHint: {x: 0.5003, y: 1.1989, z: 153.7934}
--- !u!1 &146804
GameObject:
  m_ObjectHideFlags: 0
  m_CorrespondingSourceObject: {fileID: 0}
  m_PrefabInstance: {fileID: 0}
  m_PrefabAsset: {fileID: 0}
  serializedVersion: 6
  m_Component:
  - component: {fileID: 478512}
  m_Layer: 0
  m_Name: LALeg2
  m_TagString: Untagged
  m_Icon: {fileID: 0}
  m_NavMeshLayer: 0
  m_StaticEditorFlags: 0
  m_IsActive: 1
--- !u!4 &478512
Transform:
  m_ObjectHideFlags: 0
  m_CorrespondingSourceObject: {fileID: 0}
  m_PrefabInstance: {fileID: 0}
  m_PrefabAsset: {fileID: 0}
  m_GameObject: {fileID: 146804}
  m_LocalRotation: {x: 0.0000000012270176, y: -0.000000016959108, z: 0.69552875, w: 0.7184983}
  m_LocalPosition: {x: -0.18410294, y: 0, z: 0.0000000136256215}
  m_LocalScale: {x: 1, y: 1, z: 1}
  m_Children:
  - {fileID: 425030}
  m_Father: {fileID: 453164}
  m_RootOrder: 0
  m_LocalEulerAnglesHint: {x: 0, y: 0, z: 88.138695}
--- !u!1 &147468
GameObject:
  m_ObjectHideFlags: 0
  m_CorrespondingSourceObject: {fileID: 0}
  m_PrefabInstance: {fileID: 0}
  m_PrefabAsset: {fileID: 0}
  serializedVersion: 6
  m_Component:
  - component: {fileID: 490198}
  m_Layer: 0
  m_Name: RCLeg1
  m_TagString: Untagged
  m_Icon: {fileID: 0}
  m_NavMeshLayer: 0
  m_StaticEditorFlags: 0
  m_IsActive: 1
--- !u!4 &490198
Transform:
  m_ObjectHideFlags: 0
  m_CorrespondingSourceObject: {fileID: 0}
  m_PrefabInstance: {fileID: 0}
  m_PrefabAsset: {fileID: 0}
  m_GameObject: {fileID: 147468}
  m_LocalRotation: {x: 0.51393104, y: 0.01729715, z: 0.85737926, w: 0.021831965}
  m_LocalPosition: {x: -0.00025746974, y: 0.108168, z: -0.15423223}
  m_LocalScale: {x: 1, y: 0.99999994, z: 1.0000001}
  m_Children:
  - {fileID: 432738}
  m_Father: {fileID: 438780}
  m_RootOrder: 2
  m_LocalEulerAnglesHint: {x: -0.41369998, y: 61.8901, z: 176.8347}
--- !u!1 &148420
GameObject:
  m_ObjectHideFlags: 0
  m_CorrespondingSourceObject: {fileID: 0}
  m_PrefabInstance: {fileID: 0}
  m_PrefabAsset: {fileID: 0}
  serializedVersion: 6
  m_Component:
  - component: {fileID: 427722}
  m_Layer: 0
  m_Name: LALegNub
  m_TagString: Untagged
  m_Icon: {fileID: 0}
  m_NavMeshLayer: 0
  m_StaticEditorFlags: 0
  m_IsActive: 1
--- !u!4 &427722
Transform:
  m_ObjectHideFlags: 0
  m_CorrespondingSourceObject: {fileID: 0}
  m_PrefabInstance: {fileID: 0}
  m_PrefabAsset: {fileID: 0}
  m_GameObject: {fileID: 148420}
  m_LocalRotation: {x: 0.000000010244548, y: -0.0000000023283067, z: 1, w: 0.000000014901161}
  m_LocalPosition: {x: -0.17331824, y: 0, z: -0.00000002270937}
  m_LocalScale: {x: -1, y: -1, z: -0.99999994}
  m_Children: []
  m_Father: {fileID: 491548}
  m_RootOrder: 0
  m_LocalEulerAnglesHint: {x: 0, y: 0, z: -180}
--- !u!1 &149230
GameObject:
  m_ObjectHideFlags: 0
  m_CorrespondingSourceObject: {fileID: 0}
  m_PrefabInstance: {fileID: 0}
  m_PrefabAsset: {fileID: 0}
  serializedVersion: 6
  m_Component:
  - component: {fileID: 448160}
  m_Layer: 0
  m_Name: LCLeg2
  m_TagString: Untagged
  m_Icon: {fileID: 0}
  m_NavMeshLayer: 0
  m_StaticEditorFlags: 0
  m_IsActive: 1
--- !u!4 &448160
Transform:
  m_ObjectHideFlags: 0
  m_CorrespondingSourceObject: {fileID: 0}
  m_PrefabInstance: {fileID: 0}
  m_PrefabAsset: {fileID: 0}
  m_GameObject: {fileID: 149230}
  m_LocalRotation: {x: 0.000000013036014, y: -0.000000015684911, z: -0.5243965, w: 0.8514742}
  m_LocalPosition: {x: -0.1797242, y: 0, z: -0.000000036334992}
  m_LocalScale: {x: 0.99999994, y: 1.0000001, z: 1}
  m_Children:
  - {fileID: 407328}
  m_Father: {fileID: 410158}
  m_RootOrder: 0
  m_LocalEulerAnglesHint: {x: 0, y: 0, z: -63.2552}
--- !u!1 &151038
GameObject:
  m_ObjectHideFlags: 0
  m_CorrespondingSourceObject: {fileID: 0}
  m_PrefabInstance: {fileID: 0}
  m_PrefabAsset: {fileID: 0}
  serializedVersion: 6
  m_Component:
  - component: {fileID: 410158}
  m_Layer: 0
  m_Name: LCLeg1
  m_TagString: Untagged
  m_Icon: {fileID: 0}
  m_NavMeshLayer: 0
  m_StaticEditorFlags: 0
  m_IsActive: 1
--- !u!4 &410158
Transform:
  m_ObjectHideFlags: 0
  m_CorrespondingSourceObject: {fileID: 0}
  m_PrefabInstance: {fileID: 0}
  m_PrefabAsset: {fileID: 0}
  m_GameObject: {fileID: 151038}
  m_LocalRotation: {x: -0.6834279, y: -0.012301642, z: 0.72948617, w: 0.02499839}
  m_LocalPosition: {x: -0.00025790578, y: 0.10816593, z: 0.15423398}
  m_LocalScale: {x: 1, y: 0.99999994, z: 0.9999999}
  m_Children:
  - {fileID: 448160}
  m_Father: {fileID: 438780}
  m_RootOrder: 0
  m_LocalEulerAnglesHint: {x: -0.92939997, y: -86.2411, z: 176.94499}
--- !u!1 &154026
GameObject:
  m_ObjectHideFlags: 0
  m_CorrespondingSourceObject: {fileID: 0}
  m_PrefabInstance: {fileID: 0}
  m_PrefabAsset: {fileID: 0}
  serializedVersion: 6
  m_Component:
  - component: {fileID: 424458}
  m_Layer: 0
  m_Name: Footsteps
  m_TagString: Untagged
  m_Icon: {fileID: 0}
  m_NavMeshLayer: 0
  m_StaticEditorFlags: 0
  m_IsActive: 1
--- !u!4 &424458
Transform:
  m_ObjectHideFlags: 0
  m_CorrespondingSourceObject: {fileID: 0}
  m_PrefabInstance: {fileID: 0}
  m_PrefabAsset: {fileID: 0}
  m_GameObject: {fileID: 154026}
  m_LocalRotation: {x: 0, y: -0, z: -0.7071065, w: 0.7071071}
  m_LocalPosition: {x: -0, y: 0, z: -0.0011506565}
  m_LocalScale: {x: 1, y: 1, z: 1}
  m_Children: []
  m_Father: {fileID: 434304}
  m_RootOrder: 0
  m_LocalEulerAnglesHint: {x: 0, y: 0, z: -90}
--- !u!1 &157942
GameObject:
  m_ObjectHideFlags: 0
  m_CorrespondingSourceObject: {fileID: 0}
  m_PrefabInstance: {fileID: 0}
  m_PrefabAsset: {fileID: 0}
  serializedVersion: 6
  m_Component:
  - component: {fileID: 422370}
  m_Layer: 0
  m_Name: RBLeg1
  m_TagString: Untagged
  m_Icon: {fileID: 0}
  m_NavMeshLayer: 0
  m_StaticEditorFlags: 0
  m_IsActive: 1
--- !u!4 &422370
Transform:
  m_ObjectHideFlags: 0
  m_CorrespondingSourceObject: {fileID: 0}
  m_PrefabInstance: {fileID: 0}
  m_PrefabAsset: {fileID: 0}
  m_GameObject: {fileID: 157942}
  m_LocalRotation: {x: 0, y: 0, z: 0.4535453, w: 0.8912332}
  m_LocalPosition: {x: -0.27028254, y: -0.000000018167496, z: 0}
  m_LocalScale: {x: 0.614034, y: 0.99999976, z: 1}
  m_Children:
  - {fileID: 452330}
  m_Father: {fileID: 455176}
  m_RootOrder: 0
  m_LocalEulerAnglesHint: {x: 0, y: 0, z: 53.9428}
--- !u!1 &159090
GameObject:
  m_ObjectHideFlags: 0
  m_CorrespondingSourceObject: {fileID: 0}
  m_PrefabInstance: {fileID: 0}
  m_PrefabAsset: {fileID: 0}
  serializedVersion: 6
  m_Component:
  - component: {fileID: 434304}
  m_Layer: 0
  m_Name: Transform
  m_TagString: Untagged
  m_Icon: {fileID: 0}
  m_NavMeshLayer: 0
  m_StaticEditorFlags: 0
  m_IsActive: 1
--- !u!4 &434304
Transform:
  m_ObjectHideFlags: 0
  m_CorrespondingSourceObject: {fileID: 0}
  m_PrefabInstance: {fileID: 0}
  m_PrefabAsset: {fileID: 0}
  m_GameObject: {fileID: 159090}
  m_LocalRotation: {x: -0.50000024, y: 0.49999976, z: 0.49999976, w: 0.50000024}
  m_LocalPosition: {x: -0, y: 0.39342567, z: -0.3157164}
  m_LocalScale: {x: 1, y: 1, z: 1}
  m_Children:
  - {fileID: 424458}
  - {fileID: 455176}
  - {fileID: 412808}
  - {fileID: 465420}
  m_Father: {fileID: 424638}
  m_RootOrder: 0
  m_LocalEulerAnglesHint: {x: -90, y: 89.9999, z: 0}
--- !u!1 &160498
GameObject:
  m_ObjectHideFlags: 0
  m_CorrespondingSourceObject: {fileID: 0}
  m_PrefabInstance: {fileID: 0}
  m_PrefabAsset: {fileID: 0}
  serializedVersion: 6
  m_Component:
  - component: {fileID: 433582}
  m_Layer: 0
  m_Name: RALegNub
  m_TagString: Untagged
  m_Icon: {fileID: 0}
  m_NavMeshLayer: 0
  m_StaticEditorFlags: 0
  m_IsActive: 1
--- !u!4 &433582
Transform:
  m_ObjectHideFlags: 0
  m_CorrespondingSourceObject: {fileID: 0}
  m_PrefabInstance: {fileID: 0}
  m_PrefabAsset: {fileID: 0}
  m_GameObject: {fileID: 160498}
  m_LocalRotation: {x: -0.000000002561137, y: 0.000000003259629, z: -0.000000014901161,
    w: 1}
  m_LocalPosition: {x: -0.13865454, y: -0.000000072669984, z: 0.00000002270937}
  m_LocalScale: {x: 1, y: 1, z: 1.0000001}
  m_Children: []
  m_Father: {fileID: 415542}
  m_RootOrder: 0
  m_LocalEulerAnglesHint: {x: 0, y: 0, z: 0}
--- !u!1 &164098
GameObject:
  m_ObjectHideFlags: 0
  m_CorrespondingSourceObject: {fileID: 0}
  m_PrefabInstance: {fileID: 0}
  m_PrefabAsset: {fileID: 0}
  serializedVersion: 6
  m_Component:
  - component: {fileID: 452262}
  m_Layer: 0
  m_Name: RCLeg4
  m_TagString: Untagged
  m_Icon: {fileID: 0}
  m_NavMeshLayer: 0
  m_StaticEditorFlags: 0
  m_IsActive: 1
--- !u!4 &452262
Transform:
  m_ObjectHideFlags: 0
  m_CorrespondingSourceObject: {fileID: 0}
  m_PrefabInstance: {fileID: 0}
  m_PrefabAsset: {fileID: 0}
  m_GameObject: {fileID: 164098}
  m_LocalRotation: {x: -0.005730062, y: -0.043904748, z: -0.28388906, w: 0.9578343}
  m_LocalPosition: {x: -0.107824855, y: 0.3396643, z: 0}
  m_LocalScale: {x: 1.0000002, y: 1.0000001, z: 1.0000001}
  m_Children:
  - {fileID: 438214}
  m_Father: {fileID: 463556}
  m_RootOrder: 0
  m_LocalEulerAnglesHint: {x: -2.0577, y: -4.6405997, z: -32.9348}
--- !u!1 &168250
GameObject:
  m_ObjectHideFlags: 0
  m_CorrespondingSourceObject: {fileID: 0}
  m_PrefabInstance: {fileID: 0}
  m_PrefabAsset: {fileID: 0}
  serializedVersion: 6
  m_Component:
  - component: {fileID: 448292}
  m_Layer: 0
  m_Name: Head
  m_TagString: Untagged
  m_Icon: {fileID: 0}
  m_NavMeshLayer: 0
  m_StaticEditorFlags: 0
  m_IsActive: 1
--- !u!4 &448292
Transform:
  m_ObjectHideFlags: 0
  m_CorrespondingSourceObject: {fileID: 0}
  m_PrefabInstance: {fileID: 0}
  m_PrefabAsset: {fileID: 0}
  m_GameObject: {fileID: 168250}
  m_LocalRotation: {x: 0.000004077544, y: 0.0000013216817, z: -0.056715075, w: 0.99839044}
  m_LocalPosition: {x: -0.070320524, y: 0.000000004541874, z: 0}
  m_LocalScale: {x: 0.99999994, y: 0.99999994, z: 1}
  m_Children:
  - {fileID: 444562}
  m_Father: {fileID: 468736}
  m_RootOrder: 0
  m_LocalEulerAnglesHint: {x: 0.00049999997, y: 0.0001, z: -6.5025997}
--- !u!1 &168578
GameObject:
  m_ObjectHideFlags: 0
  m_CorrespondingSourceObject: {fileID: 0}
  m_PrefabInstance: {fileID: 0}
  m_PrefabAsset: {fileID: 0}
  serializedVersion: 6
  m_Component:
  - component: {fileID: 444986}
  m_Layer: 0
  m_Name: LCLegNub
  m_TagString: Untagged
  m_Icon: {fileID: 0}
  m_NavMeshLayer: 0
  m_StaticEditorFlags: 0
  m_IsActive: 1
--- !u!4 &444986
Transform:
  m_ObjectHideFlags: 0
  m_CorrespondingSourceObject: {fileID: 0}
  m_PrefabInstance: {fileID: 0}
  m_PrefabAsset: {fileID: 0}
  m_GameObject: {fileID: 168578}
  m_LocalRotation: {x: -0.0000000018626451, y: 0.0000000013969839, z: 1, w: 6.383443e-17}
  m_LocalPosition: {x: -0.20788564, y: 0, z: -0.000000072669984}
  m_LocalScale: {x: -1, y: -1, z: -1}
  m_Children: []
  m_Father: {fileID: 417550}
  m_RootOrder: 0
  m_LocalEulerAnglesHint: {x: 0, y: 0, z: -180}
--- !u!1 &169464
GameObject:
  m_ObjectHideFlags: 0
  m_CorrespondingSourceObject: {fileID: 0}
  m_PrefabInstance: {fileID: 0}
  m_PrefabAsset: {fileID: 0}
  serializedVersion: 6
  m_Component:
  - component: {fileID: 449866}
  m_Layer: 0
  m_Name: RALeg2
  m_TagString: Untagged
  m_Icon: {fileID: 0}
  m_NavMeshLayer: 0
  m_StaticEditorFlags: 0
  m_IsActive: 1
--- !u!4 &449866
Transform:
  m_ObjectHideFlags: 0
  m_CorrespondingSourceObject: {fileID: 0}
  m_PrefabInstance: {fileID: 0}
  m_PrefabAsset: {fileID: 0}
  m_GameObject: {fileID: 169464}
  m_LocalRotation: {x: -0.000000013684843, y: -0.000000033353658, z: 0.22885342, w: 0.9734609}
  m_LocalPosition: {x: -0.1841029, y: 0.000000036334992, z: 0}
  m_LocalScale: {x: 1.0000001, y: 1, z: 1}
  m_Children:
  - {fileID: 451268}
  m_Father: {fileID: 418028}
  m_RootOrder: 0
  m_LocalEulerAnglesHint: {x: 0, y: 0, z: 26.4592}
--- !u!1 &171386
GameObject:
  m_ObjectHideFlags: 0
  m_CorrespondingSourceObject: {fileID: 0}
  m_PrefabInstance: {fileID: 0}
  m_PrefabAsset: {fileID: 0}
  serializedVersion: 6
  m_Component:
  - component: {fileID: 454240}
  - component: {fileID: 13796454}
  m_Layer: 0
  m_Name: unwrap
  m_TagString: Untagged
  m_Icon: {fileID: 0}
  m_NavMeshLayer: 0
  m_StaticEditorFlags: 0
  m_IsActive: 1
--- !u!4 &454240
Transform:
  m_ObjectHideFlags: 0
  m_CorrespondingSourceObject: {fileID: 0}
  m_PrefabInstance: {fileID: 0}
  m_PrefabAsset: {fileID: 0}
  m_GameObject: {fileID: 171386}
  m_LocalRotation: {x: -0.57357633, y: 0, z: 0, w: 0.8191521}
  m_LocalPosition: {x: -0, y: 0, z: 0}
  m_LocalScale: {x: 1, y: 1, z: 0.81125027}
  m_Children: []
  m_Father: {fileID: 424638}
  m_RootOrder: 1
  m_LocalEulerAnglesHint: {x: -70, y: 0, z: 0}
--- !u!137 &13796454
SkinnedMeshRenderer:
  m_ObjectHideFlags: 0
  m_CorrespondingSourceObject: {fileID: 0}
  m_PrefabInstance: {fileID: 0}
  m_PrefabAsset: {fileID: 0}
  m_GameObject: {fileID: 171386}
  m_Enabled: 1
  m_CastShadows: 1
  m_ReceiveShadows: 1
  m_DynamicOccludee: 1
  m_MotionVectors: 1
  m_LightProbeUsage: 1
  m_ReflectionProbeUsage: 1
  m_RayTracingMode: 3
  m_RayTraceProcedural: 0
  m_RenderingLayerMask: 1
  m_RendererPriority: 0
  m_Materials:
  - {fileID: 2100000, guid: 42f6b9c6b62064821a6fe6b06bd83f88, type: 2}
  - {fileID: 2100000, guid: fa6d569006bd7464a8b93a215d3d4f38, type: 2}
  m_StaticBatchInfo:
    firstSubMesh: 0
    subMeshCount: 0
  m_StaticBatchRoot: {fileID: 0}
  m_ProbeAnchor: {fileID: 0}
  m_LightProbeVolumeOverride: {fileID: 0}
  m_ScaleInLightmap: 1
  m_ReceiveGI: 1
  m_PreserveUVs: 0
  m_IgnoreNormalsForChartDetection: 0
  m_ImportantGI: 0
  m_StitchLightmapSeams: 1
  m_SelectedEditorRenderState: 3
  m_MinimumChartSize: 4
  m_AutoUVMaxDistance: 0.5
  m_AutoUVMaxAngle: 89
  m_LightmapParameters: {fileID: 0}
  m_SortingLayerID: 0
  m_SortingLayer: 0
  m_SortingOrder: 0
  serializedVersion: 2
  m_Quality: 0
  m_UpdateWhenOffscreen: 0
  m_SkinnedMotionVectors: 1
  m_Mesh: {fileID: 4300000, guid: 3677e4c549e1148ed870972bb5489646, type: 3}
  m_Bones:
  - {fileID: 448292}
  - {fileID: 438780}
  - {fileID: 421662}
  - {fileID: 465098}
  - {fileID: 407328}
  - {fileID: 418028}
  - {fileID: 422370}
  - {fileID: 455176}
  - {fileID: 412808}
  - {fileID: 410158}
  - {fileID: 463556}
  - {fileID: 453164}
  - {fileID: 496894}
  - {fileID: 465420}
  - {fileID: 490198}
  - {fileID: 479198}
  - {fileID: 448160}
  - {fileID: 439210}
  - {fileID: 432738}
  - {fileID: 415542}
  - {fileID: 451268}
  - {fileID: 452330}
  - {fileID: 482628}
  - {fileID: 449866}
  - {fileID: 417550}
  - {fileID: 488338}
  - {fileID: 478512}
  - {fileID: 425030}
  - {fileID: 491548}
  - {fileID: 454242}
  - {fileID: 452262}
  m_BlendShapeWeights: []
  m_RootBone: {fileID: 412808}
  m_AABB:
    m_Center: {x: -0.23006292, y: 0.6515941, z: -0.013349891}
    m_Extent: {x: 0.6950813, y: 1.1692226, z: 1.0699776}
  m_DirtyAABB: 0
--- !u!1 &174410
GameObject:
  m_ObjectHideFlags: 0
  m_CorrespondingSourceObject: {fileID: 0}
  m_PrefabInstance: {fileID: 0}
  m_PrefabAsset: {fileID: 0}
  serializedVersion: 6
  m_Component:
  - component: {fileID: 451268}
  m_Layer: 0
  m_Name: RALeg3
  m_TagString: Untagged
  m_Icon: {fileID: 0}
  m_NavMeshLayer: 0
  m_StaticEditorFlags: 0
  m_IsActive: 1
--- !u!4 &451268
Transform:
  m_ObjectHideFlags: 0
  m_CorrespondingSourceObject: {fileID: 0}
  m_PrefabInstance: {fileID: 0}
  m_PrefabAsset: {fileID: 0}
  m_GameObject: {fileID: 174410}
  m_LocalRotation: {x: 0.93880266, y: -0.34167787, z: 0.04226917, w: 0.010915677}
  m_LocalPosition: {x: -0.25048268, y: 0.000000036334992, z: -0.000000018167496}
  m_LocalScale: {x: 1, y: 1.0000001, z: 1.0000001}
  m_Children:
  - {fileID: 415542}
  m_Father: {fileID: 449866}
  m_RootOrder: 0
  m_LocalEulerAnglesHint: {x: 2.8304, y: 175.87149, z: -140.104}
--- !u!1 &179356
GameObject:
  m_ObjectHideFlags: 0
  m_CorrespondingSourceObject: {fileID: 0}
  m_PrefabInstance: {fileID: 0}
  m_PrefabAsset: {fileID: 0}
  serializedVersion: 6
  m_Component:
  - component: {fileID: 455176}
  m_Layer: 0
  m_Name: LBLegCon
  m_TagString: Untagged
  m_Icon: {fileID: 0}
  m_NavMeshLayer: 0
  m_StaticEditorFlags: 0
  m_IsActive: 1
--- !u!4 &455176
Transform:
  m_ObjectHideFlags: 0
  m_CorrespondingSourceObject: {fileID: 0}
  m_PrefabInstance: {fileID: 0}
  m_PrefabAsset: {fileID: 0}
  m_GameObject: {fileID: 179356}
  m_LocalRotation: {x: 0.28114778, y: 0.95966446, z: 0.0000010222965, w: 0.00000029949663}
  m_LocalPosition: {x: 0.000000031540072, y: 0.000000036334992, z: 0}
  m_LocalScale: {x: -1.0532678, y: -0.99999964, z: -1}
  m_Children:
  - {fileID: 422370}
  m_Father: {fileID: 434304}
  m_RootOrder: 1
  m_LocalEulerAnglesHint: {x: -0.0001, y: 179.9999, z: 32.6574}
--- !u!1 &183256
GameObject:
  m_ObjectHideFlags: 0
  m_CorrespondingSourceObject: {fileID: 0}
  m_PrefabInstance: {fileID: 0}
  m_PrefabAsset: {fileID: 0}
  serializedVersion: 6
  m_Component:
  - component: {fileID: 438780}
  m_Layer: 0
  m_Name: Spine
  m_TagString: Untagged
  m_Icon: {fileID: 0}
  m_NavMeshLayer: 0
  m_StaticEditorFlags: 0
  m_IsActive: 1
--- !u!4 &438780
Transform:
  m_ObjectHideFlags: 0
  m_CorrespondingSourceObject: {fileID: 0}
  m_PrefabInstance: {fileID: 0}
  m_PrefabAsset: {fileID: 0}
  m_GameObject: {fileID: 183256}
  m_LocalRotation: {x: -0.000002917703, y: 0.0000028579152, z: -0.707951, w: 0.7062616}
  m_LocalPosition: {x: -0.108167276, y: 0.00000072669985, z: 0.0000000018474926}
  m_LocalScale: {x: 1, y: 1, z: 1}
  m_Children:
  - {fileID: 410158}
  - {fileID: 468736}
  - {fileID: 490198}
  m_Father: {fileID: 412808}
  m_RootOrder: 0
  m_LocalEulerAnglesHint: {x: 0, y: 0.00049999997, z: -90.136894}
--- !u!1 &185162
GameObject:
  m_ObjectHideFlags: 0
  m_CorrespondingSourceObject: {fileID: 0}
  m_PrefabInstance: {fileID: 0}
  m_PrefabAsset: {fileID: 0}
  serializedVersion: 6
  m_Component:
  - component: {fileID: 452330}
  m_Layer: 0
  m_Name: RBLeg2
  m_TagString: Untagged
  m_Icon: {fileID: 0}
  m_NavMeshLayer: 0
  m_StaticEditorFlags: 0
  m_IsActive: 1
--- !u!4 &452330
Transform:
  m_ObjectHideFlags: 0
  m_CorrespondingSourceObject: {fileID: 0}
  m_PrefabInstance: {fileID: 0}
  m_PrefabAsset: {fileID: 0}
  m_GameObject: {fileID: 185162}
  m_LocalRotation: {x: 0.08951824, y: 0.33653566, z: -0.029312447, w: 0.93694776}
  m_LocalPosition: {x: -0.26995867, y: 0.00000010900497, z: 0}
  m_LocalScale: {x: 1.1003921, y: 1.0000006, z: 1.0000001}
  m_Children:
  - {fileID: 479198}
  m_Father: {fileID: 422370}
  m_RootOrder: 0
  m_LocalEulerAnglesHint: {x: 10.8056, y: 39.5442, z: 0.3105}
--- !u!1 &185348
GameObject:
  m_ObjectHideFlags: 0
  m_CorrespondingSourceObject: {fileID: 0}
  m_PrefabInstance: {fileID: 0}
  m_PrefabAsset: {fileID: 0}
  serializedVersion: 6
  m_Component:
  - component: {fileID: 468736}
  m_Layer: 0
  m_Name: NeckNub
  m_TagString: Untagged
  m_Icon: {fileID: 0}
  m_NavMeshLayer: 0
  m_StaticEditorFlags: 0
  m_IsActive: 1
--- !u!4 &468736
Transform:
  m_ObjectHideFlags: 0
  m_CorrespondingSourceObject: {fileID: 0}
  m_PrefabInstance: {fileID: 0}
  m_PrefabAsset: {fileID: 0}
  m_GameObject: {fileID: 185348}
  m_LocalRotation: {x: -0.0000009286227, y: -0.0000074982113, z: 0.6755903, w: 0.73727727}
  m_LocalPosition: {x: -0.43008247, y: -0.000004868889, z: 4.890055e-10}
  m_LocalScale: {x: 0.99999994, y: 0.99999994, z: 1}
  m_Children:
  - {fileID: 448292}
  - {fileID: 465098}
  - {fileID: 421662}
  m_Father: {fileID: 438780}
  m_RootOrder: 1
  m_LocalEulerAnglesHint: {x: 0.00049999997, y: -0.0007, z: 85}
--- !u!1 &185902
GameObject:
  m_ObjectHideFlags: 0
  m_CorrespondingSourceObject: {fileID: 0}
  m_PrefabInstance: {fileID: 0}
  m_PrefabAsset: {fileID: 0}
  serializedVersion: 6
  m_Component:
  - component: {fileID: 465098}
  m_Layer: 0
  m_Name: LALegCon
  m_TagString: Untagged
  m_Icon: {fileID: 0}
  m_NavMeshLayer: 0
  m_StaticEditorFlags: 0
  m_IsActive: 1
--- !u!4 &465098
Transform:
  m_ObjectHideFlags: 0
  m_CorrespondingSourceObject: {fileID: 0}
  m_PrefabInstance: {fileID: 0}
  m_PrefabAsset: {fileID: 0}
  m_GameObject: {fileID: 185902}
  m_LocalRotation: {x: -0.42655066, y: 0.6783959, z: -0.590429, w: -0.09605794}
  m_LocalPosition: {x: -0.00000036334993, y: 0.000056555415, z: -0.04688032}
  m_LocalScale: {x: 0.99999994, y: 0.99999994, z: 0.99999994}
  m_Children:
  - {fileID: 453164}
  m_Father: {fileID: 468736}
  m_RootOrder: 1
  m_LocalEulerAnglesHint: {x: 62.0108, y: 127.290794, z: -97.4812}
--- !u!1 &188026
GameObject:
  m_ObjectHideFlags: 0
  m_CorrespondingSourceObject: {fileID: 0}
  m_PrefabInstance: {fileID: 0}
  m_PrefabAsset: {fileID: 0}
  serializedVersion: 6
  m_Component:
  - component: {fileID: 432738}
  m_Layer: 0
  m_Name: RCLeg2
  m_TagString: Untagged
  m_Icon: {fileID: 0}
  m_NavMeshLayer: 0
  m_StaticEditorFlags: 0
  m_IsActive: 1
--- !u!4 &432738
Transform:
  m_ObjectHideFlags: 0
  m_CorrespondingSourceObject: {fileID: 0}
  m_PrefabInstance: {fileID: 0}
  m_PrefabAsset: {fileID: 0}
  m_GameObject: {fileID: 188026}
  m_LocalRotation: {x: 0.00000003530737, y: 0.00000001865605, z: -0.16825762, w: 0.9857431}
  m_LocalPosition: {x: -0.17972413, y: 0, z: 0}
  m_LocalScale: {x: 1, y: 0.99999994, z: 0.99999994}
  m_Children:
  - {fileID: 463556}
  m_Father: {fileID: 490198}
  m_RootOrder: 0
  m_LocalEulerAnglesHint: {x: 0, y: 0, z: -19.373}
--- !u!1 &188500
GameObject:
  m_ObjectHideFlags: 0
  m_CorrespondingSourceObject: {fileID: 0}
  m_PrefabInstance: {fileID: 0}
  m_PrefabAsset: {fileID: 0}
  serializedVersion: 6
  m_Component:
  - component: {fileID: 424638}
  - component: {fileID: 9517616}
  - component: {fileID: 19539890}
  - component: {fileID: 5474106}
  m_Layer: 9
  m_Name: ScarabGood
  m_TagString: Monster
  m_Icon: {fileID: 0}
  m_NavMeshLayer: 0
  m_StaticEditorFlags: 0
  m_IsActive: 1
--- !u!4 &424638
Transform:
  m_ObjectHideFlags: 0
  m_CorrespondingSourceObject: {fileID: 0}
  m_PrefabInstance: {fileID: 0}
  m_PrefabAsset: {fileID: 0}
  m_GameObject: {fileID: 188500}
  m_LocalRotation: {x: 0, y: 0, z: 0, w: 1}
  m_LocalPosition: {x: -130.35683, y: 1.1793594, z: -127.23427}
  m_LocalScale: {x: 1, y: 1, z: 1}
  m_Children:
  - {fileID: 434304}
  - {fileID: 454240}
  - {fileID: 417932}
  m_Father: {fileID: 0}
  m_RootOrder: 0
  m_LocalEulerAnglesHint: {x: 0, y: 0, z: 0}
--- !u!95 &9517616
Animator:
  serializedVersion: 3
  m_ObjectHideFlags: 0
  m_CorrespondingSourceObject: {fileID: 0}
  m_PrefabInstance: {fileID: 0}
  m_PrefabAsset: {fileID: 0}
  m_GameObject: {fileID: 188500}
  m_Enabled: 1
  m_Avatar: {fileID: 9000000, guid: 3677e4c549e1148ed870972bb5489646, type: 3}
  m_Controller: {fileID: 9100000, guid: 0d868ef55b23d47a6bfc913d4c0b5b0c, type: 2}
  m_CullingMode: 1
  m_UpdateMode: 0
  m_ApplyRootMotion: 0
  m_LinearVelocityBlending: 0
  m_WarningMessage: 
  m_HasTransformHierarchy: 1
  m_AllowConstantClipSamplingOptimization: 1
  m_KeepAnimatorControllerStateOnDisable: 0
--- !u!195 &19539890
NavMeshAgent:
  m_ObjectHideFlags: 0
  m_CorrespondingSourceObject: {fileID: 0}
  m_PrefabInstance: {fileID: 0}
  m_PrefabAsset: {fileID: 0}
  m_GameObject: {fileID: 188500}
  m_Enabled: 1
  m_AgentTypeID: 0
  m_Radius: 0.5
  m_Speed: 5
  m_Acceleration: 100
  avoidancePriority: 50
  m_AngularSpeed: 360
  m_StoppingDistance: 0
  m_AutoTraverseOffMeshLink: 1
  m_AutoBraking: 1
  m_AutoRepath: 1
  m_Height: 1.2
  m_BaseOffset: -0.05
  m_WalkableMask: 4294967295
  m_ObstacleAvoidanceType: 0
--- !u!54 &5474106
Rigidbody:
  m_ObjectHideFlags: 0
  m_CorrespondingSourceObject: {fileID: 0}
  m_PrefabInstance: {fileID: 0}
  m_PrefabAsset: {fileID: 0}
  m_GameObject: {fileID: 188500}
  serializedVersion: 2
  m_Mass: 1
  m_Drag: 0
  m_AngularDrag: 0.05
  m_UseGravity: 0
  m_IsKinematic: 1
  m_Interpolate: 0
  m_Constraints: 0
  m_CollisionDetection: 0
--- !u!1 &197558
GameObject:
  m_ObjectHideFlags: 0
  m_CorrespondingSourceObject: {fileID: 0}
  m_PrefabInstance: {fileID: 0}
  m_PrefabAsset: {fileID: 0}
  serializedVersion: 6
  m_Component:
  - component: {fileID: 488338}
  m_Layer: 0
  m_Name: RBLeg2 1
  m_TagString: Untagged
  m_Icon: {fileID: 0}
  m_NavMeshLayer: 0
  m_StaticEditorFlags: 0
  m_IsActive: 1
--- !u!4 &488338
Transform:
  m_ObjectHideFlags: 0
  m_CorrespondingSourceObject: {fileID: 0}
  m_PrefabInstance: {fileID: 0}
  m_PrefabAsset: {fileID: 0}
  m_GameObject: {fileID: 197558}
  m_LocalRotation: {x: 0.08951824, y: 0.33653566, z: -0.029312447, w: 0.93694776}
  m_LocalPosition: {x: -0.26995867, y: 0.00000010900497, z: 0}
  m_LocalScale: {x: 1.1003921, y: 1.0000006, z: 1.0000001}
  m_Children:
  - {fileID: 439210}
  m_Father: {fileID: 496894}
  m_RootOrder: 0
  m_LocalEulerAnglesHint: {x: 10.8056, y: 39.5442, z: 0.3105}
--- !u!1 &199040
GameObject:
  m_ObjectHideFlags: 0
  m_CorrespondingSourceObject: {fileID: 0}
  m_PrefabInstance: {fileID: 0}
  m_PrefabAsset: {fileID: 0}
  serializedVersion: 6
  m_Component:
  - component: {fileID: 417550}
  m_Layer: 0
  m_Name: LCLeg4
  m_TagString: Untagged
  m_Icon: {fileID: 0}
  m_NavMeshLayer: 0
  m_StaticEditorFlags: 0
  m_IsActive: 1
--- !u!4 &417550
Transform:
  m_ObjectHideFlags: 0
  m_CorrespondingSourceObject: {fileID: 0}
  m_PrefabInstance: {fileID: 0}
  m_PrefabAsset: {fileID: 0}
  m_GameObject: {fileID: 199040}
  m_LocalRotation: {x: 0.012183045, y: 0.042568035, z: -0.13858056, w: 0.9893609}
  m_LocalPosition: {x: -0.10782482, y: 0.33966425, z: 0}
  m_LocalScale: {x: 1.0000001, y: 1, z: 1}
  m_Children:
  - {fileID: 444986}
  m_Father: {fileID: 407328}
  m_RootOrder: 0
  m_LocalEulerAnglesHint: {x: 2.0576, y: 4.6405997, z: -15.8638}
