%YAML 1.1
%TAG !u! tag:unity3d.com,2011:
--- !u!1 &103160
GameObject:
  m_ObjectHideFlags: 0
  m_CorrespondingSourceObject: {fileID: 0}
  m_PrefabInstance: {fileID: 0}
  m_PrefabAsset: {fileID: 0}
  serializedVersion: 6
  m_Component:
  - component: {fileID: 410722}
  - component: {fileID: 13778390}
  m_Layer: 0
  m_Name: unwrap
  m_TagString: Untagged
  m_Icon: {fileID: 0}
  m_NavMeshLayer: 0
  m_StaticEditorFlags: 0
  m_IsActive: 1
--- !u!4 &410722
Transform:
  m_ObjectHideFlags: 0
  m_CorrespondingSourceObject: {fileID: 0}
  m_PrefabInstance: {fileID: 0}
  m_PrefabAsset: {fileID: 0}
  m_GameObject: {fileID: 103160}
  m_LocalRotation: {x: -0.57357633, y: 0, z: 0, w: 0.8191521}
  m_LocalPosition: {x: -0, y: 0, z: 0}
  m_LocalScale: {x: 1, y: 1, z: 0.81125027}
  m_Children: []
  m_Father: {fileID: 427880}
  m_RootOrder: 1
  m_LocalEulerAnglesHint: {x: -70, y: 0, z: 0}
--- !u!137 &13778390
SkinnedMeshRenderer:
  m_ObjectHideFlags: 0
  m_CorrespondingSourceObject: {fileID: 0}
  m_PrefabInstance: {fileID: 0}
  m_PrefabAsset: {fileID: 0}
  m_GameObject: {fileID: 103160}
  m_Enabled: 1
  m_CastShadows: 1
  m_ReceiveShadows: 1
  m_DynamicOccludee: 1
  m_MotionVectors: 1
  m_LightProbeUsage: 1
  m_ReflectionProbeUsage: 1
  m_RayTracingMode: 3
  m_RayTraceProcedural: 0
  m_RenderingLayerMask: 1
  m_RendererPriority: 0
  m_Materials:
  - {fileID: 2100000, guid: aef50a8dfabe74e22ac809adb74f33ec, type: 2}
  - {fileID: 2100000, guid: fa6d569006bd7464a8b93a215d3d4f38, type: 2}
  m_StaticBatchInfo:
    firstSubMesh: 0
    subMeshCount: 0
  m_StaticBatchRoot: {fileID: 0}
  m_ProbeAnchor: {fileID: 0}
  m_LightProbeVolumeOverride: {fileID: 0}
  m_ScaleInLightmap: 1
  m_ReceiveGI: 1
  m_PreserveUVs: 0
  m_IgnoreNormalsForChartDetection: 0
  m_ImportantGI: 0
  m_StitchLightmapSeams: 1
  m_SelectedEditorRenderState: 3
  m_MinimumChartSize: 4
  m_AutoUVMaxDistance: 0.5
  m_AutoUVMaxAngle: 89
  m_LightmapParameters: {fileID: 0}
  m_SortingLayerID: 0
  m_SortingLayer: 0
  m_SortingOrder: 0
  serializedVersion: 2
  m_Quality: 0
  m_UpdateWhenOffscreen: 0
  m_SkinnedMotionVectors: 1
  m_Mesh: {fileID: 4300000, guid: 3677e4c549e1148ed870972bb5489646, type: 3}
  m_Bones:
  - {fileID: 406230}
  - {fileID: 460948}
  - {fileID: 479548}
  - {fileID: 447380}
  - {fileID: 455814}
  - {fileID: 496390}
  - {fileID: 405028}
  - {fileID: 474514}
  - {fileID: 489592}
  - {fileID: 417006}
  - {fileID: 423690}
  - {fileID: 480856}
  - {fileID: 409012}
  - {fileID: 492472}
  - {fileID: 421958}
  - {fileID: 412854}
  - {fileID: 472342}
  - {fileID: 479186}
  - {fileID: 405158}
  - {fileID: 413102}
  - {fileID: 422640}
  - {fileID: 465094}
  - {fileID: 431642}
  - {fileID: 424672}
  - {fileID: 420098}
  - {fileID: 414512}
  - {fileID: 453206}
  - {fileID: 467676}
  - {fileID: 488468}
  - {fileID: 424340}
  - {fileID: 410820}
  m_BlendShapeWeights: []
  m_RootBone: {fileID: 489592}
  m_AABB:
    m_Center: {x: -0.23006292, y: 0.6515941, z: -0.013349891}
    m_Extent: {x: 0.6950813, y: 1.1692226, z: 1.0699776}
  m_DirtyAABB: 0
--- !u!1 &104498
GameObject:
  m_ObjectHideFlags: 0
  m_CorrespondingSourceObject: {fileID: 0}
  m_PrefabInstance: {fileID: 0}
  m_PrefabAsset: {fileID: 0}
  serializedVersion: 6
  m_Component:
  - component: {fileID: 410820}
  m_Layer: 0
  m_Name: RCLeg4
  m_TagString: Untagged
  m_Icon: {fileID: 0}
  m_NavMeshLayer: 0
  m_StaticEditorFlags: 0
  m_IsActive: 1
--- !u!4 &410820
Transform:
  m_ObjectHideFlags: 0
  m_CorrespondingSourceObject: {fileID: 0}
  m_PrefabInstance: {fileID: 0}
  m_PrefabAsset: {fileID: 0}
  m_GameObject: {fileID: 104498}
  m_LocalRotation: {x: -0.005730062, y: -0.043904748, z: -0.28388906, w: 0.9578343}
  m_LocalPosition: {x: -0.107824855, y: 0.3396643, z: 0}
  m_LocalScale: {x: 1.0000002, y: 1.0000001, z: 1.0000001}
  m_Children:
  - {fileID: 484838}
  m_Father: {fileID: 423690}
  m_RootOrder: 0
  m_LocalEulerAnglesHint: {x: -2.0577, y: -4.6405997, z: -32.9348}
--- !u!1 &105332
GameObject:
  m_ObjectHideFlags: 0
  m_CorrespondingSourceObject: {fileID: 0}
  m_PrefabInstance: {fileID: 0}
  m_PrefabAsset: {fileID: 0}
  serializedVersion: 6
  m_Component:
  - component: {fileID: 453206}
  m_Layer: 0
  m_Name: LALeg2
  m_TagString: Untagged
  m_Icon: {fileID: 0}
  m_NavMeshLayer: 0
  m_StaticEditorFlags: 0
  m_IsActive: 1
--- !u!4 &453206
Transform:
  m_ObjectHideFlags: 0
  m_CorrespondingSourceObject: {fileID: 0}
  m_PrefabInstance: {fileID: 0}
  m_PrefabAsset: {fileID: 0}
  m_GameObject: {fileID: 105332}
  m_LocalRotation: {x: 0.0000000012270176, y: -0.000000016959108, z: 0.69552875, w: 0.7184983}
  m_LocalPosition: {x: -0.18410294, y: 0, z: 0.0000000136256215}
  m_LocalScale: {x: 1, y: 1, z: 1}
  m_Children:
  - {fileID: 467676}
  m_Father: {fileID: 480856}
  m_RootOrder: 0
  m_LocalEulerAnglesHint: {x: 0, y: 0, z: 88.138695}
--- !u!1 &107286
GameObject:
  m_ObjectHideFlags: 0
  m_CorrespondingSourceObject: {fileID: 0}
  m_PrefabInstance: {fileID: 0}
  m_PrefabAsset: {fileID: 0}
  serializedVersion: 6
  m_Component:
  - component: {fileID: 409012}
  m_Layer: 0
  m_Name: RBLeg1 1
  m_TagString: Untagged
  m_Icon: {fileID: 0}
  m_NavMeshLayer: 0
  m_StaticEditorFlags: 0
  m_IsActive: 1
--- !u!4 &409012
Transform:
  m_ObjectHideFlags: 0
  m_CorrespondingSourceObject: {fileID: 0}
  m_PrefabInstance: {fileID: 0}
  m_PrefabAsset: {fileID: 0}
  m_GameObject: {fileID: 107286}
  m_LocalRotation: {x: 0, y: 0, z: 0.4535453, w: 0.8912332}
  m_LocalPosition: {x: -0.27028254, y: -0.000000018167496, z: 0}
  m_LocalScale: {x: 0.614034, y: 0.99999976, z: 1}
  m_Children:
  - {fileID: 414512}
  m_Father: {fileID: 492472}
  m_RootOrder: 0
  m_LocalEulerAnglesHint: {x: 0, y: 0, z: 53.9428}
--- !u!1 &109428
GameObject:
  m_ObjectHideFlags: 0
  m_CorrespondingSourceObject: {fileID: 0}
  m_PrefabInstance: {fileID: 0}
  m_PrefabAsset: {fileID: 0}
  serializedVersion: 6
  m_Component:
  - component: {fileID: 420098}
  m_Layer: 0
  m_Name: LCLeg4
  m_TagString: Untagged
  m_Icon: {fileID: 0}
  m_NavMeshLayer: 0
  m_StaticEditorFlags: 0
  m_IsActive: 1
--- !u!4 &420098
Transform:
  m_ObjectHideFlags: 0
  m_CorrespondingSourceObject: {fileID: 0}
  m_PrefabInstance: {fileID: 0}
  m_PrefabAsset: {fileID: 0}
  m_GameObject: {fileID: 109428}
  m_LocalRotation: {x: 0.012183045, y: 0.042568035, z: -0.13858056, w: 0.9893609}
  m_LocalPosition: {x: -0.10782482, y: 0.33966425, z: 0}
  m_LocalScale: {x: 1.0000001, y: 1, z: 1}
  m_Children:
  - {fileID: 411888}
  m_Father: {fileID: 455814}
  m_RootOrder: 0
  m_LocalEulerAnglesHint: {x: 2.0576, y: 4.6405997, z: -15.8638}
--- !u!1 &119648
GameObject:
  m_ObjectHideFlags: 0
  m_CorrespondingSourceObject: {fileID: 0}
  m_PrefabInstance: {fileID: 0}
  m_PrefabAsset: {fileID: 0}
  serializedVersion: 6
  m_Component:
  - component: {fileID: 484838}
  m_Layer: 0
  m_Name: LCLegNub 1
  m_TagString: Untagged
  m_Icon: {fileID: 0}
  m_NavMeshLayer: 0
  m_StaticEditorFlags: 0
  m_IsActive: 1
--- !u!4 &484838
Transform:
  m_ObjectHideFlags: 0
  m_CorrespondingSourceObject: {fileID: 0}
  m_PrefabInstance: {fileID: 0}
  m_PrefabAsset: {fileID: 0}
  m_GameObject: {fileID: 119648}
  m_LocalRotation: {x: -0.0000000018626451, y: 0.0000000037252903, z: 6.938894e-18,
    w: 1}
  m_LocalPosition: {x: -0.20788571, y: 0, z: 0.000000036334992}
  m_LocalScale: {x: 1, y: 1, z: 1}
  m_Children: []
  m_Father: {fileID: 410820}
  m_RootOrder: 0
  m_LocalEulerAnglesHint: {x: 0, y: 0, z: 0}
--- !u!1 &119872
GameObject:
  m_ObjectHideFlags: 0
  m_CorrespondingSourceObject: {fileID: 0}
  m_PrefabInstance: {fileID: 0}
  m_PrefabAsset: {fileID: 0}
  serializedVersion: 6
  m_Component:
  - component: {fileID: 405158}
  m_Layer: 0
  m_Name: RCLeg2
  m_TagString: Untagged
  m_Icon: {fileID: 0}
  m_NavMeshLayer: 0
  m_StaticEditorFlags: 0
  m_IsActive: 1
--- !u!4 &405158
Transform:
  m_ObjectHideFlags: 0
  m_CorrespondingSourceObject: {fileID: 0}
  m_PrefabInstance: {fileID: 0}
  m_PrefabAsset: {fileID: 0}
  m_GameObject: {fileID: 119872}
  m_LocalRotation: {x: 0.00000003530737, y: 0.00000001865605, z: -0.16825762, w: 0.9857431}
  m_LocalPosition: {x: -0.17972413, y: 0, z: 0}
  m_LocalScale: {x: 1, y: 0.99999994, z: 0.99999994}
  m_Children:
  - {fileID: 423690}
  m_Father: {fileID: 421958}
  m_RootOrder: 0
  m_LocalEulerAnglesHint: {x: 0, y: 0, z: -19.373}
--- !u!1 &120640
GameObject:
  m_ObjectHideFlags: 0
  m_CorrespondingSourceObject: {fileID: 0}
  m_PrefabInstance: {fileID: 0}
  m_PrefabAsset: {fileID: 0}
  serializedVersion: 6
  m_Component:
  - component: {fileID: 417006}
  m_Layer: 0
  m_Name: LCLeg1
  m_TagString: Untagged
  m_Icon: {fileID: 0}
  m_NavMeshLayer: 0
  m_StaticEditorFlags: 0
  m_IsActive: 1
--- !u!4 &417006
Transform:
  m_ObjectHideFlags: 0
  m_CorrespondingSourceObject: {fileID: 0}
  m_PrefabInstance: {fileID: 0}
  m_PrefabAsset: {fileID: 0}
  m_GameObject: {fileID: 120640}
  m_LocalRotation: {x: -0.6834279, y: -0.012301642, z: 0.72948617, w: 0.02499839}
  m_LocalPosition: {x: -0.00025790578, y: 0.10816593, z: 0.15423398}
  m_LocalScale: {x: 1, y: 0.99999994, z: 0.9999999}
  m_Children:
  - {fileID: 472342}
  m_Father: {fileID: 460948}
  m_RootOrder: 0
  m_LocalEulerAnglesHint: {x: -0.92939997, y: -86.2411, z: 176.94499}
--- !u!1 &123550
GameObject:
  m_ObjectHideFlags: 0
  m_CorrespondingSourceObject: {fileID: 0}
  m_PrefabInstance: {fileID: 0}
  m_PrefabAsset: {fileID: 0}
  serializedVersion: 6
  m_Component:
  - component: {fileID: 488468}
  m_Layer: 0
  m_Name: LALeg4
  m_TagString: Untagged
  m_Icon: {fileID: 0}
  m_NavMeshLayer: 0
  m_StaticEditorFlags: 0
  m_IsActive: 1
--- !u!4 &488468
Transform:
  m_ObjectHideFlags: 0
  m_CorrespondingSourceObject: {fileID: 0}
  m_PrefabInstance: {fileID: 0}
  m_PrefabAsset: {fileID: 0}
  m_GameObject: {fileID: 123550}
  m_LocalRotation: {x: 0.0003476468, y: -0.00019406769, z: 0.48745513, w: 0.87314796}
  m_LocalPosition: {x: -0.50007236, y: 0.000000072669984, z: -0.000000024980308}
  m_LocalScale: {x: 1, y: 1, z: 0.9999999}
  m_Children:
  - {fileID: 422158}
  m_Father: {fileID: 467676}
  m_RootOrder: 0
  m_LocalEulerAnglesHint: {x: 0.045599997, y: 0, z: 58.346897}
--- !u!1 &126418
GameObject:
  m_ObjectHideFlags: 0
  m_CorrespondingSourceObject: {fileID: 0}
  m_PrefabInstance: {fileID: 0}
  m_PrefabAsset: {fileID: 0}
  serializedVersion: 6
  m_Component:
  - component: {fileID: 431642}
  m_Layer: 0
  m_Name: RBLeg4
  m_TagString: Untagged
  m_Icon: {fileID: 0}
  m_NavMeshLayer: 0
  m_StaticEditorFlags: 0
  m_IsActive: 1
--- !u!4 &431642
Transform:
  m_ObjectHideFlags: 0
  m_CorrespondingSourceObject: {fileID: 0}
  m_PrefabInstance: {fileID: 0}
  m_PrefabAsset: {fileID: 0}
  m_GameObject: {fileID: 126418}
  m_LocalRotation: {x: -0.009917149, y: -0.25011098, z: -0.038358618, w: 0.9674062}
  m_LocalPosition: {x: -0.45025092, y: 0.000000036334992, z: 0}
  m_LocalScale: {x: 0.99999994, y: 0.99999994, z: 1}
  m_Children: []
  m_Father: {fileID: 412854}
  m_RootOrder: 0
  m_LocalEulerAnglesHint: {x: -2.1993, y: -28.9151, z: -3.9742}
--- !u!1 &131858
GameObject:
  m_ObjectHideFlags: 0
  m_CorrespondingSourceObject: {fileID: 0}
  m_PrefabInstance: {fileID: 0}
  m_PrefabAsset: {fileID: 0}
  serializedVersion: 6
  m_Component:
  - component: {fileID: 422158}
  m_Layer: 0
  m_Name: LALegNub
  m_TagString: Untagged
  m_Icon: {fileID: 0}
  m_NavMeshLayer: 0
  m_StaticEditorFlags: 0
  m_IsActive: 1
--- !u!4 &422158
Transform:
  m_ObjectHideFlags: 0
  m_CorrespondingSourceObject: {fileID: 0}
  m_PrefabInstance: {fileID: 0}
  m_PrefabAsset: {fileID: 0}
  m_GameObject: {fileID: 131858}
  m_LocalRotation: {x: 0.000000010244548, y: -0.0000000023283067, z: 1, w: 0.000000014901161}
  m_LocalPosition: {x: -0.17331824, y: 0, z: -0.00000002270937}
  m_LocalScale: {x: -1, y: -1, z: -0.99999994}
  m_Children: []
  m_Father: {fileID: 488468}
  m_RootOrder: 0
  m_LocalEulerAnglesHint: {x: 0, y: 0, z: -180}
--- !u!1 &137458
GameObject:
  m_ObjectHideFlags: 0
  m_CorrespondingSourceObject: {fileID: 0}
  m_PrefabInstance: {fileID: 0}
  m_PrefabAsset: {fileID: 0}
  serializedVersion: 6
  m_Component:
  - component: {fileID: 411888}
  m_Layer: 0
  m_Name: LCLegNub
  m_TagString: Untagged
  m_Icon: {fileID: 0}
  m_NavMeshLayer: 0
  m_StaticEditorFlags: 0
  m_IsActive: 1
--- !u!4 &411888
Transform:
  m_ObjectHideFlags: 0
  m_CorrespondingSourceObject: {fileID: 0}
  m_PrefabInstance: {fileID: 0}
  m_PrefabAsset: {fileID: 0}
  m_GameObject: {fileID: 137458}
  m_LocalRotation: {x: -0.0000000018626451, y: 0.0000000013969839, z: 1, w: 6.383443e-17}
  m_LocalPosition: {x: -0.20788564, y: 0, z: -0.000000072669984}
  m_LocalScale: {x: -1, y: -1, z: -1}
  m_Children: []
  m_Father: {fileID: 420098}
  m_RootOrder: 0
  m_LocalEulerAnglesHint: {x: 0, y: 0, z: -180}
--- !u!1 &139444
GameObject:
  m_ObjectHideFlags: 0
  m_CorrespondingSourceObject: {fileID: 0}
  m_PrefabInstance: {fileID: 0}
  m_PrefabAsset: {fileID: 0}
  serializedVersion: 6
  m_Component:
  - component: {fileID: 421958}
  m_Layer: 0
  m_Name: RCLeg1
  m_TagString: Untagged
  m_Icon: {fileID: 0}
  m_NavMeshLayer: 0
  m_StaticEditorFlags: 0
  m_IsActive: 1
--- !u!4 &421958
Transform:
  m_ObjectHideFlags: 0
  m_CorrespondingSourceObject: {fileID: 0}
  m_PrefabInstance: {fileID: 0}
  m_PrefabAsset: {fileID: 0}
  m_GameObject: {fileID: 139444}
  m_LocalRotation: {x: 0.51393104, y: 0.01729715, z: 0.85737926, w: 0.021831965}
  m_LocalPosition: {x: -0.00025746974, y: 0.108168, z: -0.15423223}
  m_LocalScale: {x: 1, y: 0.99999994, z: 1.0000001}
  m_Children:
  - {fileID: 405158}
  m_Father: {fileID: 460948}
  m_RootOrder: 2
  m_LocalEulerAnglesHint: {x: -0.41369998, y: 61.8901, z: 176.8347}
--- !u!1 &139542
GameObject:
  m_ObjectHideFlags: 0
  m_CorrespondingSourceObject: {fileID: 0}
  m_PrefabInstance: {fileID: 0}
  m_PrefabAsset: {fileID: 0}
  serializedVersion: 6
  m_Component:
  - component: {fileID: 405028}
  m_Layer: 0
  m_Name: RBLeg1
  m_TagString: Untagged
  m_Icon: {fileID: 0}
  m_NavMeshLayer: 0
  m_StaticEditorFlags: 0
  m_IsActive: 1
--- !u!4 &405028
Transform:
  m_ObjectHideFlags: 0
  m_CorrespondingSourceObject: {fileID: 0}
  m_PrefabInstance: {fileID: 0}
  m_PrefabAsset: {fileID: 0}
  m_GameObject: {fileID: 139542}
  m_LocalRotation: {x: 0, y: 0, z: 0.4535453, w: 0.8912332}
  m_LocalPosition: {x: -0.27028254, y: -0.000000018167496, z: 0}
  m_LocalScale: {x: 0.614034, y: 0.99999976, z: 1}
  m_Children:
  - {fileID: 465094}
  m_Father: {fileID: 474514}
  m_RootOrder: 0
  m_LocalEulerAnglesHint: {x: 0, y: 0, z: 53.9428}
--- !u!1 &142590
GameObject:
  m_ObjectHideFlags: 0
  m_CorrespondingSourceObject: {fileID: 0}
  m_PrefabInstance: {fileID: 0}
  m_PrefabAsset: {fileID: 0}
  serializedVersion: 6
  m_Component:
  - component: {fileID: 422640}
  m_Layer: 0
  m_Name: RALeg3
  m_TagString: Untagged
  m_Icon: {fileID: 0}
  m_NavMeshLayer: 0
  m_StaticEditorFlags: 0
  m_IsActive: 1
--- !u!4 &422640
Transform:
  m_ObjectHideFlags: 0
  m_CorrespondingSourceObject: {fileID: 0}
  m_PrefabInstance: {fileID: 0}
  m_PrefabAsset: {fileID: 0}
  m_GameObject: {fileID: 142590}
  m_LocalRotation: {x: 0.93880266, y: -0.34167787, z: 0.04226917, w: 0.010915677}
  m_LocalPosition: {x: -0.25048268, y: 0.000000036334992, z: -0.000000018167496}
  m_LocalScale: {x: 1, y: 1.0000001, z: 1.0000001}
  m_Children:
  - {fileID: 413102}
  m_Father: {fileID: 424672}
  m_RootOrder: 0
  m_LocalEulerAnglesHint: {x: 2.8304, y: 175.87149, z: -140.104}
--- !u!1 &143512
GameObject:
  m_ObjectHideFlags: 0
  m_CorrespondingSourceObject: {fileID: 0}
  m_PrefabInstance: {fileID: 0}
  m_PrefabAsset: {fileID: 0}
  serializedVersion: 6
  m_Component:
  - component: {fileID: 480856}
  m_Layer: 0
  m_Name: LALeg1
  m_TagString: Untagged
  m_Icon: {fileID: 0}
  m_NavMeshLayer: 0
  m_StaticEditorFlags: 0
  m_IsActive: 1
--- !u!4 &480856
Transform:
  m_ObjectHideFlags: 0
  m_CorrespondingSourceObject: {fileID: 0}
  m_PrefabInstance: {fileID: 0}
  m_PrefabAsset: {fileID: 0}
  m_GameObject: {fileID: 143512}
  m_LocalRotation: {x: 0.913015, y: -0.3319323, z: 0.13183892, w: 0.19708651}
  m_LocalPosition: {x: -0.16476192, y: -0.000000036334992, z: -0.000000036334992}
  m_LocalScale: {x: 1, y: 1, z: 1.0000001}
  m_Children:
  - {fileID: 453206}
  m_Father: {fileID: 447380}
  m_RootOrder: 0
  m_LocalEulerAnglesHint: {x: 26.577599, y: 172.9412, z: -141.71109}
--- !u!1 &143704
GameObject:
  m_ObjectHideFlags: 0
  m_CorrespondingSourceObject: {fileID: 0}
  m_PrefabInstance: {fileID: 0}
  m_PrefabAsset: {fileID: 0}
  serializedVersion: 6
  m_Component:
  - component: {fileID: 477824}
  - component: {fileID: 13583056}
  m_Layer: 2
  m_Name: AggroArea
  m_TagString: Untagged
  m_Icon: {fileID: 0}
  m_NavMeshLayer: 0
  m_StaticEditorFlags: 0
  m_IsActive: 1
--- !u!4 &477824
Transform:
  m_ObjectHideFlags: 0
  m_CorrespondingSourceObject: {fileID: 0}
  m_PrefabInstance: {fileID: 0}
  m_PrefabAsset: {fileID: 0}
  m_GameObject: {fileID: 143704}
  m_LocalRotation: {x: 0, y: 0, z: 0, w: 1}
  m_LocalPosition: {x: 0, y: 0, z: 0}
  m_LocalScale: {x: 1, y: 1, z: 1}
  m_Children: []
  m_Father: {fileID: 427880}
  m_RootOrder: 2
  m_LocalEulerAnglesHint: {x: 0, y: 0, z: 0}
--- !u!135 &13583056
SphereCollider:
  m_ObjectHideFlags: 0
  m_CorrespondingSourceObject: {fileID: 0}
  m_PrefabInstance: {fileID: 0}
  m_PrefabAsset: {fileID: 0}
  m_GameObject: {fileID: 143704}
  m_Material: {fileID: 0}
  m_IsTrigger: 1
  m_Enabled: 1
  serializedVersion: 2
  m_Radius: 3.5
  m_Center: {x: 0, y: 0, z: 0}
--- !u!1 &148666
GameObject:
  m_ObjectHideFlags: 0
  m_CorrespondingSourceObject: {fileID: 0}
  m_PrefabInstance: {fileID: 0}
  m_PrefabAsset: {fileID: 0}
  serializedVersion: 6
  m_Component:
  - component: {fileID: 452758}
  m_Layer: 0
  m_Name: HeadNub
  m_TagString: Untagged
  m_Icon: {fileID: 0}
  m_NavMeshLayer: 0
  m_StaticEditorFlags: 0
  m_IsActive: 1
--- !u!4 &452758
Transform:
  m_ObjectHideFlags: 0
  m_CorrespondingSourceObject: {fileID: 0}
  m_PrefabInstance: {fileID: 0}
  m_PrefabAsset: {fileID: 0}
  m_GameObject: {fileID: 148666}
  m_LocalRotation: {x: 5.684342e-14, y: 0, z: -0, w: 1}
  m_LocalPosition: {x: -0.22033754, y: 0.000000009083748, z: -6.93035e-14}
  m_LocalScale: {x: 1, y: 1, z: 1}
  m_Children: []
  m_Father: {fileID: 406230}
  m_RootOrder: 0
  m_LocalEulerAnglesHint: {x: 0, y: 0, z: 0}
--- !u!1 &150388
GameObject:
  m_ObjectHideFlags: 0
  m_CorrespondingSourceObject: {fileID: 0}
  m_PrefabInstance: {fileID: 0}
  m_PrefabAsset: {fileID: 0}
  serializedVersion: 6
  m_Component:
  - component: {fileID: 472342}
  m_Layer: 0
  m_Name: LCLeg2
  m_TagString: Untagged
  m_Icon: {fileID: 0}
  m_NavMeshLayer: 0
  m_StaticEditorFlags: 0
  m_IsActive: 1
--- !u!4 &472342
Transform:
  m_ObjectHideFlags: 0
  m_CorrespondingSourceObject: {fileID: 0}
  m_PrefabInstance: {fileID: 0}
  m_PrefabAsset: {fileID: 0}
  m_GameObject: {fileID: 150388}
  m_LocalRotation: {x: 0.000000013036014, y: -0.000000015684911, z: -0.5243965, w: 0.8514742}
  m_LocalPosition: {x: -0.1797242, y: 0, z: -0.000000036334992}
  m_LocalScale: {x: 0.99999994, y: 1.0000001, z: 1}
  m_Children:
  - {fileID: 455814}
  m_Father: {fileID: 417006}
  m_RootOrder: 0
  m_LocalEulerAnglesHint: {x: 0, y: 0, z: -63.2552}
--- !u!1 &150888
GameObject:
  m_ObjectHideFlags: 0
  m_CorrespondingSourceObject: {fileID: 0}
  m_PrefabInstance: {fileID: 0}
  m_PrefabAsset: {fileID: 0}
  serializedVersion: 6
  m_Component:
  - component: {fileID: 465094}
  m_Layer: 0
  m_Name: RBLeg2
  m_TagString: Untagged
  m_Icon: {fileID: 0}
  m_NavMeshLayer: 0
  m_StaticEditorFlags: 0
  m_IsActive: 1
--- !u!4 &465094
Transform:
  m_ObjectHideFlags: 0
  m_CorrespondingSourceObject: {fileID: 0}
  m_PrefabInstance: {fileID: 0}
  m_PrefabAsset: {fileID: 0}
  m_GameObject: {fileID: 150888}
  m_LocalRotation: {x: 0.08951824, y: 0.33653566, z: -0.029312447, w: 0.93694776}
  m_LocalPosition: {x: -0.26995867, y: 0.00000010900497, z: 0}
  m_LocalScale: {x: 1.1003921, y: 1.0000006, z: 1.0000001}
  m_Children:
  - {fileID: 412854}
  m_Father: {fileID: 405028}
  m_RootOrder: 0
  m_LocalEulerAnglesHint: {x: 10.8056, y: 39.5442, z: 0.3105}
--- !u!1 &157812
GameObject:
  m_ObjectHideFlags: 0
  m_CorrespondingSourceObject: {fileID: 0}
  m_PrefabInstance: {fileID: 0}
  m_PrefabAsset: {fileID: 0}
  serializedVersion: 6
  m_Component:
  - component: {fileID: 423690}
  m_Layer: 0
  m_Name: RCLeg3
  m_TagString: Untagged
  m_Icon: {fileID: 0}
  m_NavMeshLayer: 0
  m_StaticEditorFlags: 0
  m_IsActive: 1
--- !u!4 &423690
Transform:
  m_ObjectHideFlags: 0
  m_CorrespondingSourceObject: {fileID: 0}
  m_PrefabInstance: {fileID: 0}
  m_PrefabAsset: {fileID: 0}
  m_GameObject: {fileID: 157812}
  m_LocalRotation: {x: -0.09567328, y: 0.0082355905, z: 0.8506331, w: 0.516916}
  m_LocalPosition: {x: -0.2511999, y: 0.000000018167496, z: -0.000000036334992}
  m_LocalScale: {x: 1.0000001, y: 1.0000001, z: 0.99999994}
  m_Children:
  - {fileID: 410820}
  m_Father: {fileID: 405158}
  m_RootOrder: 0
  m_LocalEulerAnglesHint: {x: -6.4838, y: -8.931, z: 117.9342}
--- !u!1 &159290
GameObject:
  m_ObjectHideFlags: 0
  m_CorrespondingSourceObject: {fileID: 0}
  m_PrefabInstance: {fileID: 0}
  m_PrefabAsset: {fileID: 0}
  serializedVersion: 6
  m_Component:
  - component: {fileID: 479548}
  m_Layer: 0
  m_Name: RALegCon
  m_TagString: Untagged
  m_Icon: {fileID: 0}
  m_NavMeshLayer: 0
  m_StaticEditorFlags: 0
  m_IsActive: 1
--- !u!4 &479548
Transform:
  m_ObjectHideFlags: 0
  m_CorrespondingSourceObject: {fileID: 0}
  m_PrefabInstance: {fileID: 0}
  m_PrefabAsset: {fileID: 0}
  m_GameObject: {fileID: 159290}
  m_LocalRotation: {x: -0.42654532, y: 0.6783897, z: 0.59044, w: 0.09605808}
  m_LocalPosition: {x: 0.00000029067994, y: 0.000055456283, z: 0.04688032}
  m_LocalScale: {x: 0.9999999, y: 0.99999994, z: 1}
  m_Children:
  - {fileID: 496390}
  m_Father: {fileID: 496870}
  m_RootOrder: 2
  m_LocalEulerAnglesHint: {x: -62.0117, y: -127.287994, z: -97.4834}
--- !u!1 &161088
GameObject:
  m_ObjectHideFlags: 0
  m_CorrespondingSourceObject: {fileID: 0}
  m_PrefabInstance: {fileID: 0}
  m_PrefabAsset: {fileID: 0}
  serializedVersion: 6
  m_Component:
  - component: {fileID: 406230}
  m_Layer: 0
  m_Name: Head
  m_TagString: Untagged
  m_Icon: {fileID: 0}
  m_NavMeshLayer: 0
  m_StaticEditorFlags: 0
  m_IsActive: 1
--- !u!4 &406230
Transform:
  m_ObjectHideFlags: 0
  m_CorrespondingSourceObject: {fileID: 0}
  m_PrefabInstance: {fileID: 0}
  m_PrefabAsset: {fileID: 0}
  m_GameObject: {fileID: 161088}
  m_LocalRotation: {x: 0.000004077544, y: 0.0000013216817, z: -0.056715075, w: 0.99839044}
  m_LocalPosition: {x: -0.070320524, y: 0.000000004541874, z: 0}
  m_LocalScale: {x: 0.99999994, y: 0.99999994, z: 1}
  m_Children:
  - {fileID: 452758}
  m_Father: {fileID: 496870}
  m_RootOrder: 0
  m_LocalEulerAnglesHint: {x: 0.00049999997, y: 0.0001, z: -6.5025997}
--- !u!1 &161414
GameObject:
  m_ObjectHideFlags: 0
  m_CorrespondingSourceObject: {fileID: 0}
  m_PrefabInstance: {fileID: 0}
  m_PrefabAsset: {fileID: 0}
  serializedVersion: 6
  m_Component:
  - component: {fileID: 467676}
  m_Layer: 0
  m_Name: LALeg3
  m_TagString: Untagged
  m_Icon: {fileID: 0}
  m_NavMeshLayer: 0
  m_StaticEditorFlags: 0
  m_IsActive: 1
--- !u!4 &467676
Transform:
  m_ObjectHideFlags: 0
  m_CorrespondingSourceObject: {fileID: 0}
  m_PrefabInstance: {fileID: 0}
  m_PrefabAsset: {fileID: 0}
  m_GameObject: {fileID: 161414}
  m_LocalRotation: {x: 0.7824855, y: -0.6211204, z: -0.043787945, w: 0.002930805}
  m_LocalPosition: {x: -0.25048262, y: 0.000000036334992, z: -0.000000018167496}
  m_LocalScale: {x: 1.0000001, y: 1.0000001, z: 1}
  m_Children:
  - {fileID: 488468}
  m_Father: {fileID: 453206}
  m_RootOrder: 0
  m_LocalEulerAnglesHint: {x: -2.855, y: -175.8564, z: -103.219696}
--- !u!1 &163074
GameObject:
  m_ObjectHideFlags: 0
  m_CorrespondingSourceObject: {fileID: 0}
  m_PrefabInstance: {fileID: 0}
  m_PrefabAsset: {fileID: 0}
  serializedVersion: 6
  m_Component:
  - component: {fileID: 492472}
  m_Layer: 0
  m_Name: RBLegCon
  m_TagString: Untagged
  m_Icon: {fileID: 0}
  m_NavMeshLayer: 0
  m_StaticEditorFlags: 0
  m_IsActive: 1
--- !u!4 &492472
Transform:
  m_ObjectHideFlags: 0
  m_CorrespondingSourceObject: {fileID: 0}
  m_PrefabInstance: {fileID: 0}
  m_PrefabAsset: {fileID: 0}
  m_GameObject: {fileID: 163074}
  m_LocalRotation: {x: 0, y: 0, z: 0.28114805, w: 0.9596644}
  m_LocalPosition: {x: 0.000000024480057, y: 0.00000010900497, z: 0}
  m_LocalScale: {x: 1.0532681, y: 0.99999976, z: 1}
  m_Children:
  - {fileID: 409012}
  m_Father: {fileID: 404214}
  m_RootOrder: 3
  m_LocalEulerAnglesHint: {x: 0, y: 0, z: 32.657497}
--- !u!1 &164254
GameObject:
  m_ObjectHideFlags: 0
  m_CorrespondingSourceObject: {fileID: 0}
  m_PrefabInstance: {fileID: 0}
  m_PrefabAsset: {fileID: 0}
  serializedVersion: 6
  m_Component:
  - component: {fileID: 413102}
  m_Layer: 0
  m_Name: RALeg4
  m_TagString: Untagged
  m_Icon: {fileID: 0}
  m_NavMeshLayer: 0
  m_StaticEditorFlags: 0
  m_IsActive: 1
--- !u!4 &413102
Transform:
  m_ObjectHideFlags: 0
  m_CorrespondingSourceObject: {fileID: 0}
  m_PrefabInstance: {fileID: 0}
  m_PrefabAsset: {fileID: 0}
  m_GameObject: {fileID: 164254}
  m_LocalRotation: {x: -0.00039210438, y: 0.00006913031, z: 0.17364812, w: 0.9848077}
  m_LocalPosition: {x: -0.5000723, y: 0, z: -0.00000004541874}
  m_LocalScale: {x: 0.9999999, y: 0.99999994, z: 0.9999999}
  m_Children:
  - {fileID: 422366}
  m_Father: {fileID: 422640}
  m_RootOrder: 0
  m_LocalEulerAnglesHint: {x: -0.0457, y: 0, z: 20}
--- !u!1 &168070
GameObject:
  m_ObjectHideFlags: 0
  m_CorrespondingSourceObject: {fileID: 0}
  m_PrefabInstance: {fileID: 0}
  m_PrefabAsset: {fileID: 0}
  serializedVersion: 6
  m_Component:
  - component: {fileID: 455814}
  m_Layer: 0
  m_Name: LCLeg3
  m_TagString: Untagged
  m_Icon: {fileID: 0}
  m_NavMeshLayer: 0
  m_StaticEditorFlags: 0
  m_IsActive: 1
--- !u!4 &455814
Transform:
  m_ObjectHideFlags: 0
  m_CorrespondingSourceObject: {fileID: 0}
  m_PrefabInstance: {fileID: 0}
  m_PrefabAsset: {fileID: 0}
  m_GameObject: {fileID: 168070}
  m_LocalRotation: {x: 0.011179358, y: -0.0018804611, z: 0.97389, w: 0.22673725}
  m_LocalPosition: {x: -0.2511999, y: 0.000000018167496, z: 0}
  m_LocalScale: {x: 1.0000001, y: 1.0000001, z: 1.0000002}
  m_Children:
  - {fileID: 420098}
  m_Father: {fileID: 472342}
  m_RootOrder: 0
  m_LocalEulerAnglesHint: {x: 0.5003, y: 1.1989, z: 153.7934}
--- !u!1 &168072
GameObject:
  m_ObjectHideFlags: 0
  m_CorrespondingSourceObject: {fileID: 0}
  m_PrefabInstance: {fileID: 0}
  m_PrefabAsset: {fileID: 0}
  serializedVersion: 6
  m_Component:
  - component: {fileID: 404214}
  m_Layer: 0
  m_Name: Transform
  m_TagString: Untagged
  m_Icon: {fileID: 0}
  m_NavMeshLayer: 0
  m_StaticEditorFlags: 0
  m_IsActive: 1
--- !u!4 &404214
Transform:
  m_ObjectHideFlags: 0
  m_CorrespondingSourceObject: {fileID: 0}
  m_PrefabInstance: {fileID: 0}
  m_PrefabAsset: {fileID: 0}
  m_GameObject: {fileID: 168072}
  m_LocalRotation: {x: -0.50000024, y: 0.49999976, z: 0.49999976, w: 0.50000024}
  m_LocalPosition: {x: -0, y: 0.39342567, z: -0.3157164}
  m_LocalScale: {x: 1, y: 1, z: 1}
  m_Children:
  - {fileID: 414756}
  - {fileID: 474514}
  - {fileID: 489592}
  - {fileID: 492472}
  m_Father: {fileID: 427880}
  m_RootOrder: 0
  m_LocalEulerAnglesHint: {x: -90, y: 89.9999, z: 0}
--- !u!1 &168728
GameObject:
  m_ObjectHideFlags: 0
  m_CorrespondingSourceObject: {fileID: 0}
  m_PrefabInstance: {fileID: 0}
  m_PrefabAsset: {fileID: 0}
  serializedVersion: 6
  m_Component:
  - component: {fileID: 427880}
  - component: {fileID: 9529062}
  - component: {fileID: 19540030}
  - component: {fileID: 5469206}
  m_Layer: 9
  m_Name: ScarabEvil
  m_TagString: Monster
  m_Icon: {fileID: 0}
  m_NavMeshLayer: 0
  m_StaticEditorFlags: 0
  m_IsActive: 1
--- !u!4 &427880
Transform:
  m_ObjectHideFlags: 0
  m_CorrespondingSourceObject: {fileID: 0}
  m_PrefabInstance: {fileID: 0}
  m_PrefabAsset: {fileID: 0}
  m_GameObject: {fileID: 168728}
  m_LocalRotation: {x: 0, y: 0, z: 0, w: 1}
  m_LocalPosition: {x: -123.1003, y: 1.1793594, z: -127.09993}
  m_LocalScale: {x: 1, y: 1, z: 1}
  m_Children:
  - {fileID: 404214}
  - {fileID: 410722}
  - {fileID: 477824}
  m_Father: {fileID: 0}
  m_RootOrder: 0
  m_LocalEulerAnglesHint: {x: 0, y: 0, z: 0}
--- !u!95 &9529062
Animator:
  serializedVersion: 3
  m_ObjectHideFlags: 0
  m_CorrespondingSourceObject: {fileID: 0}
  m_PrefabInstance: {fileID: 0}
  m_PrefabAsset: {fileID: 0}
  m_GameObject: {fileID: 168728}
  m_Enabled: 1
  m_Avatar: {fileID: 9000000, guid: 3677e4c549e1148ed870972bb5489646, type: 3}
  m_Controller: {fileID: 9100000, guid: 0d868ef55b23d47a6bfc913d4c0b5b0c, type: 2}
  m_CullingMode: 1
  m_UpdateMode: 0
  m_ApplyRootMotion: 0
  m_LinearVelocityBlending: 0
  m_WarningMessage: 
  m_HasTransformHierarchy: 1
  m_AllowConstantClipSamplingOptimization: 1
  m_KeepAnimatorControllerStateOnDisable: 0
--- !u!195 &19540030
NavMeshAgent:
  m_ObjectHideFlags: 0
  m_CorrespondingSourceObject: {fileID: 0}
  m_PrefabInstance: {fileID: 0}
  m_PrefabAsset: {fileID: 0}
  m_GameObject: {fileID: 168728}
  m_Enabled: 1
  m_AgentTypeID: 0
  m_Radius: 0.5
  m_Speed: 5
  m_Acceleration: 100
  avoidancePriority: 50
  m_AngularSpeed: 360
  m_StoppingDistance: 0
  m_AutoTraverseOffMeshLink: 1
  m_AutoBraking: 1
  m_AutoRepath: 1
  m_Height: 1.2
  m_BaseOffset: -0.05
  m_WalkableMask: 4294967295
  m_ObstacleAvoidanceType: 0
--- !u!54 &5469206
Rigidbody:
  m_ObjectHideFlags: 0
  m_CorrespondingSourceObject: {fileID: 0}
  m_PrefabInstance: {fileID: 0}
  m_PrefabAsset: {fileID: 0}
  m_GameObject: {fileID: 168728}
  serializedVersion: 2
  m_Mass: 1
  m_Drag: 0
  m_AngularDrag: 0.05
  m_UseGravity: 0
  m_IsKinematic: 1
  m_Interpolate: 0
  m_Constraints: 0
  m_CollisionDetection: 0
--- !u!1 &170178
GameObject:
  m_ObjectHideFlags: 0
  m_CorrespondingSourceObject: {fileID: 0}
  m_PrefabInstance: {fileID: 0}
  m_PrefabAsset: {fileID: 0}
  serializedVersion: 6
  m_Component:
  - component: {fileID: 424672}
  m_Layer: 0
  m_Name: RALeg2
  m_TagString: Untagged
  m_Icon: {fileID: 0}
  m_NavMeshLayer: 0
  m_StaticEditorFlags: 0
  m_IsActive: 1
--- !u!4 &424672
Transform:
  m_ObjectHideFlags: 0
  m_CorrespondingSourceObject: {fileID: 0}
  m_PrefabInstance: {fileID: 0}
  m_PrefabAsset: {fileID: 0}
  m_GameObject: {fileID: 170178}
  m_LocalRotation: {x: -0.000000013684843, y: -0.000000033353658, z: 0.22885342, w: 0.9734609}
  m_LocalPosition: {x: -0.1841029, y: 0.000000036334992, z: 0}
  m_LocalScale: {x: 1.0000001, y: 1, z: 1}
  m_Children:
  - {fileID: 422640}
  m_Father: {fileID: 496390}
  m_RootOrder: 0
  m_LocalEulerAnglesHint: {x: 0, y: 0, z: 26.4592}
--- !u!1 &170364
GameObject:
  m_ObjectHideFlags: 0
  m_CorrespondingSourceObject: {fileID: 0}
  m_PrefabInstance: {fileID: 0}
  m_PrefabAsset: {fileID: 0}
  serializedVersion: 6
  m_Component:
  - component: {fileID: 460948}
  m_Layer: 0
  m_Name: Spine
  m_TagString: Untagged
  m_Icon: {fileID: 0}
  m_NavMeshLayer: 0
  m_StaticEditorFlags: 0
  m_IsActive: 1
--- !u!4 &460948
Transform:
  m_ObjectHideFlags: 0
  m_CorrespondingSourceObject: {fileID: 0}
  m_PrefabInstance: {fileID: 0}
  m_PrefabAsset: {fileID: 0}
  m_GameObject: {fileID: 170364}
  m_LocalRotation: {x: -0.000002917703, y: 0.0000028579152, z: -0.707951, w: 0.7062616}
  m_LocalPosition: {x: -0.108167276, y: 0.00000072669985, z: 0.0000000018474926}
  m_LocalScale: {x: 1, y: 1, z: 1}
  m_Children:
  - {fileID: 417006}
  - {fileID: 496870}
  - {fileID: 421958}
  m_Father: {fileID: 489592}
  m_RootOrder: 0
  m_LocalEulerAnglesHint: {x: 0, y: 0.00049999997, z: -90.136894}
--- !u!1 &171424
GameObject:
  m_ObjectHideFlags: 0
  m_CorrespondingSourceObject: {fileID: 0}
  m_PrefabInstance: {fileID: 0}
  m_PrefabAsset: {fileID: 0}
  serializedVersion: 6
  m_Component:
  - component: {fileID: 489592}
  - component: {fileID: 13634238}
  m_Layer: 0
  m_Name: Pelvis
  m_TagString: Untagged
  m_Icon: {fileID: 0}
  m_NavMeshLayer: 0
  m_StaticEditorFlags: 0
  m_IsActive: 1
--- !u!4 &489592
Transform:
  m_ObjectHideFlags: 0
  m_CorrespondingSourceObject: {fileID: 0}
  m_PrefabInstance: {fileID: 0}
  m_PrefabAsset: {fileID: 0}
  m_GameObject: {fileID: 171424}
  m_LocalRotation: {x: -0.4999997, y: 0.5000003, z: 0.4999997, w: 0.5000003}
  m_LocalPosition: {x: 0, y: 0, z: 0}
  m_LocalScale: {x: 1, y: 1, z: 1}
  m_Children:
  - {fileID: 460948}
  m_Father: {fileID: 404214}
  m_RootOrder: 2
  m_LocalEulerAnglesHint: {x: -90, y: 90, z: 0}
--- !u!136 &13634238
CapsuleCollider:
  m_ObjectHideFlags: 0
  m_CorrespondingSourceObject: {fileID: 0}
  m_PrefabInstance: {fileID: 0}
  m_PrefabAsset: {fileID: 0}
  m_GameObject: {fileID: 171424}
  m_Material: {fileID: 0}
  m_IsTrigger: 1
  m_Enabled: 1
  m_Radius: 0.79
  m_Height: 1
  m_Direction: 1
  m_Center: {x: -0.28, y: 0.3, z: 0}
--- !u!1 &171594
GameObject:
  m_ObjectHideFlags: 0
  m_CorrespondingSourceObject: {fileID: 0}
  m_PrefabInstance: {fileID: 0}
  m_PrefabAsset: {fileID: 0}
  serializedVersion: 6
  m_Component:
  - component: {fileID: 479186}
  m_Layer: 0
  m_Name: RBLeg3 1
  m_TagString: Untagged
  m_Icon: {fileID: 0}
  m_NavMeshLayer: 0
  m_StaticEditorFlags: 0
  m_IsActive: 1
--- !u!4 &479186
Transform:
  m_ObjectHideFlags: 0
  m_CorrespondingSourceObject: {fileID: 0}
  m_PrefabInstance: {fileID: 0}
  m_PrefabAsset: {fileID: 0}
  m_GameObject: {fileID: 171594}
  m_LocalRotation: {x: -0.1164682, y: -0.52007186, z: 0.024184823, w: 0.84579873}
  m_LocalPosition: {x: -0.29342365, y: -0.000000036334992, z: 0}
  m_LocalScale: {x: 1.2183715, y: 1.0000002, z: 1}
  m_Children:
  - {fileID: 424340}
  m_Father: {fileID: 414512}
  m_RootOrder: 0
  m_LocalEulerAnglesHint: {x: -9.8961, y: -63.995296, z: 9.4683}
--- !u!1 &176184
GameObject:
  m_ObjectHideFlags: 0
  m_CorrespondingSourceObject: {fileID: 0}
  m_PrefabInstance: {fileID: 0}
  m_PrefabAsset: {fileID: 0}
  serializedVersion: 6
  m_Component:
  - component: {fileID: 422366}
  m_Layer: 0
  m_Name: RALegNub
  m_TagString: Untagged
  m_Icon: {fileID: 0}
  m_NavMeshLayer: 0
  m_StaticEditorFlags: 0
  m_IsActive: 1
--- !u!4 &422366
Transform:
  m_ObjectHideFlags: 0
  m_CorrespondingSourceObject: {fileID: 0}
  m_PrefabInstance: {fileID: 0}
  m_PrefabAsset: {fileID: 0}
  m_GameObject: {fileID: 176184}
  m_LocalRotation: {x: -0.000000002561137, y: 0.000000003259629, z: -0.000000014901161,
    w: 1}
  m_LocalPosition: {x: -0.13865454, y: -0.000000072669984, z: 0.00000002270937}
  m_LocalScale: {x: 1, y: 1, z: 1.0000001}
  m_Children: []
  m_Father: {fileID: 413102}
  m_RootOrder: 0
  m_LocalEulerAnglesHint: {x: 0, y: 0, z: 0}
--- !u!1 &181412
GameObject:
  m_ObjectHideFlags: 0
  m_CorrespondingSourceObject: {fileID: 0}
  m_PrefabInstance: {fileID: 0}
  m_PrefabAsset: {fileID: 0}
  serializedVersion: 6
  m_Component:
  - component: {fileID: 424340}
  m_Layer: 0
  m_Name: RBLeg4 1
  m_TagString: Untagged
  m_Icon: {fileID: 0}
  m_NavMeshLayer: 0
  m_StaticEditorFlags: 0
  m_IsActive: 1
--- !u!4 &424340
Transform:
  m_ObjectHideFlags: 0
  m_CorrespondingSourceObject: {fileID: 0}
  m_PrefabInstance: {fileID: 0}
  m_PrefabAsset: {fileID: 0}
  m_GameObject: {fileID: 181412}
  m_LocalRotation: {x: -0.009917149, y: -0.25011098, z: -0.038358618, w: 0.9674062}
  m_LocalPosition: {x: -0.45025092, y: 0.000000036334992, z: 0}
  m_LocalScale: {x: 0.99999994, y: 0.99999994, z: 1}
  m_Children: []
  m_Father: {fileID: 479186}
  m_RootOrder: 0
  m_LocalEulerAnglesHint: {x: -2.1993, y: -28.9151, z: -3.9742}
--- !u!1 &188074
GameObject:
  m_ObjectHideFlags: 0
  m_CorrespondingSourceObject: {fileID: 0}
  m_PrefabInstance: {fileID: 0}
  m_PrefabAsset: {fileID: 0}
  serializedVersion: 6
  m_Component:
  - component: {fileID: 474514}
  m_Layer: 0
  m_Name: LBLegCon
  m_TagString: Untagged
  m_Icon: {fileID: 0}
  m_NavMeshLayer: 0
  m_StaticEditorFlags: 0
  m_IsActive: 1
--- !u!4 &474514
Transform:
  m_ObjectHideFlags: 0
  m_CorrespondingSourceObject: {fileID: 0}
  m_PrefabInstance: {fileID: 0}
  m_PrefabAsset: {fileID: 0}
  m_GameObject: {fileID: 188074}
  m_LocalRotation: {x: 0.28114778, y: 0.95966446, z: 0.0000010222965, w: 0.00000029949663}
  m_LocalPosition: {x: 0.000000031540072, y: 0.000000036334992, z: 0}
  m_LocalScale: {x: -1.0532678, y: -0.99999964, z: -1}
  m_Children:
  - {fileID: 405028}
  m_Father: {fileID: 404214}
  m_RootOrder: 1
  m_LocalEulerAnglesHint: {x: -0.0001, y: 179.9999, z: 32.6574}
--- !u!1 &188220
GameObject:
  m_ObjectHideFlags: 0
  m_CorrespondingSourceObject: {fileID: 0}
  m_PrefabInstance: {fileID: 0}
  m_PrefabAsset: {fileID: 0}
  serializedVersion: 6
  m_Component:
  - component: {fileID: 496870}
  m_Layer: 0
  m_Name: NeckNub
  m_TagString: Untagged
  m_Icon: {fileID: 0}
  m_NavMeshLayer: 0
  m_StaticEditorFlags: 0
  m_IsActive: 1
--- !u!4 &496870
Transform:
  m_ObjectHideFlags: 0
  m_CorrespondingSourceObject: {fileID: 0}
  m_PrefabInstance: {fileID: 0}
  m_PrefabAsset: {fileID: 0}
  m_GameObject: {fileID: 188220}
  m_LocalRotation: {x: -0.0000009286227, y: -0.0000074982113, z: 0.6755903, w: 0.73727727}
  m_LocalPosition: {x: -0.43008247, y: -0.000004868889, z: 4.890055e-10}
  m_LocalScale: {x: 0.99999994, y: 0.99999994, z: 1}
  m_Children:
  - {fileID: 406230}
  - {fileID: 447380}
  - {fileID: 479548}
  m_Father: {fileID: 460948}
  m_RootOrder: 1
  m_LocalEulerAnglesHint: {x: 0.00049999997, y: -0.0007, z: 85}
--- !u!1 &190828
GameObject:
  m_ObjectHideFlags: 0
  m_CorrespondingSourceObject: {fileID: 0}
  m_PrefabInstance: {fileID: 0}
  m_PrefabAsset: {fileID: 0}
  serializedVersion: 6
  m_Component:
  - component: {fileID: 414512}
  m_Layer: 0
  m_Name: RBLeg2 1
  m_TagString: Untagged
  m_Icon: {fileID: 0}
  m_NavMeshLayer: 0
  m_StaticEditorFlags: 0
  m_IsActive: 1
--- !u!4 &414512
Transform:
  m_ObjectHideFlags: 0
  m_CorrespondingSourceObject: {fileID: 0}
  m_PrefabInstance: {fileID: 0}
  m_PrefabAsset: {fileID: 0}
  m_GameObject: {fileID: 190828}
  m_LocalRotation: {x: 0.08951824, y: 0.33653566, z: -0.029312447, w: 0.93694776}
  m_LocalPosition: {x: -0.26995867, y: 0.00000010900497, z: 0}
  m_LocalScale: {x: 1.1003921, y: 1.0000006, z: 1.0000001}
  m_Children:
  - {fileID: 479186}
  m_Father: {fileID: 409012}
  m_RootOrder: 0
  m_LocalEulerAnglesHint: {x: 10.8056, y: 39.5442, z: 0.3105}
--- !u!1 &191900
GameObject:
  m_ObjectHideFlags: 0
  m_CorrespondingSourceObject: {fileID: 0}
  m_PrefabInstance: {fileID: 0}
  m_PrefabAsset: {fileID: 0}
  serializedVersion: 6
  m_Component:
  - component: {fileID: 412854}
  m_Layer: 0
  m_Name: RBLeg3
  m_TagString: Untagged
  m_Icon: {fileID: 0}
  m_NavMeshLayer: 0
  m_StaticEditorFlags: 0
  m_IsActive: 1
--- !u!4 &412854
Transform:
  m_ObjectHideFlags: 0
  m_CorrespondingSourceObject: {fileID: 0}
  m_PrefabInstance: {fileID: 0}
  m_PrefabAsset: {fileID: 0}
  m_GameObject: {fileID: 191900}
  m_LocalRotation: {x: -0.1164682, y: -0.52007186, z: 0.024184823, w: 0.84579873}
  m_LocalPosition: {x: -0.29342365, y: -0.000000036334992, z: 0}
  m_LocalScale: {x: 1.2183715, y: 1.0000002, z: 1}
  m_Children:
  - {fileID: 431642}
  m_Father: {fileID: 465094}
  m_RootOrder: 0
  m_LocalEulerAnglesHint: {x: -9.8961, y: -63.995296, z: 9.4683}
--- !u!1 &194598
GameObject:
  m_ObjectHideFlags: 0
  m_CorrespondingSourceObject: {fileID: 0}
  m_PrefabInstance: {fileID: 0}
  m_PrefabAsset: {fileID: 0}
  serializedVersion: 6
  m_Component:
  - component: {fileID: 496390}
  m_Layer: 0
  m_Name: RALeg1
  m_TagString: Untagged
  m_Icon: {fileID: 0}
  m_NavMeshLayer: 0
  m_StaticEditorFlags: 0
  m_IsActive: 1
--- !u!4 &496390
Transform:
  m_ObjectHideFlags: 0
  m_CorrespondingSourceObject: {fileID: 0}
  m_PrefabInstance: {fileID: 0}
  m_PrefabAsset: {fileID: 0}
  m_GameObject: {fileID: 194598}
  m_LocalRotation: {x: 0.87918985, y: -0.29868075, z: -0.27584574, w: -0.24844365}
  m_LocalPosition: {x: -0.16476192, y: 0, z: -0.000000018167496}
  m_LocalScale: {x: 1, y: 1.0000001, z: 1.0000001}
  m_Children:
  - {fileID: 424672}
  m_Father: {fileID: 479548}
  m_RootOrder: 0
  m_LocalEulerAnglesHint: {x: -36.9873, y: -155.0746, z: -150.9279}
--- !u!1 &195214
GameObject:
  m_ObjectHideFlags: 0
  m_CorrespondingSourceObject: {fileID: 0}
  m_PrefabInstance: {fileID: 0}
  m_PrefabAsset: {fileID: 0}
  serializedVersion: 6
  m_Component:
  - component: {fileID: 447380}
  m_Layer: 0
  m_Name: LALegCon
  m_TagString: Untagged
  m_Icon: {fileID: 0}
  m_NavMeshLayer: 0
  m_StaticEditorFlags: 0
  m_IsActive: 1
--- !u!4 &447380
Transform:
  m_ObjectHideFlags: 0
  m_CorrespondingSourceObject: {fileID: 0}
  m_PrefabInstance: {fileID: 0}
  m_PrefabAsset: {fileID: 0}
  m_GameObject: {fileID: 195214}
  m_LocalRotation: {x: -0.42655066, y: 0.6783959, z: -0.590429, w: -0.09605794}
  m_LocalPosition: {x: -0.00000036334993, y: 0.000056555415, z: -0.04688032}
  m_LocalScale: {x: 0.99999994, y: 0.99999994, z: 0.99999994}
  m_Children:
  - {fileID: 480856}
  m_Father: {fileID: 496870}
  m_RootOrder: 1
  m_LocalEulerAnglesHint: {x: 62.0108, y: 127.290794, z: -97.4812}
--- !u!1 &198088
GameObject:
  m_ObjectHideFlags: 0
  m_CorrespondingSourceObject: {fileID: 0}
  m_PrefabInstance: {fileID: 0}
  m_PrefabAsset: {fileID: 0}
  serializedVersion: 6
  m_Component:
  - component: {fileID: 414756}
  m_Layer: 0
  m_Name: Footsteps
  m_TagString: Untagged
  m_Icon: {fileID: 0}
  m_NavMeshLayer: 0
  m_StaticEditorFlags: 0
  m_IsActive: 1
--- !u!4 &414756
Transform:
  m_ObjectHideFlags: 0
  m_CorrespondingSourceObject: {fileID: 0}
  m_PrefabInstance: {fileID: 0}
  m_PrefabAsset: {fileID: 0}
  m_GameObject: {fileID: 198088}
  m_LocalRotation: {x: 0, y: -0, z: -0.7071065, w: 0.7071071}
  m_LocalPosition: {x: -0, y: 0, z: -0.0011506565}
  m_LocalScale: {x: 1, y: 1, z: 1}
  m_Children: []
  m_Father: {fileID: 404214}
  m_RootOrder: 0
  m_LocalEulerAnglesHint: {x: 0, y: 0, z: -90}
